3.208477838591668e+26	-3.0811499841684004e+26	9.110969979932642e-06	2.95887511239659e+26	-4.138842481323767e-06	0.000244140625
4.099445277353152e+26	-3.8676544549274235e+26	1.967104347905116e+20	3.654403915737171e+26	-3.563443217670587e+20	8.395267132929005e+21
5.233762624483302e+26	-4.880525669042022e+26	3.5664371933604866e+20	4.560112701348146e+26	-1.1235701280625416e+21	4.72555229522132e+22
6.66442735937525e+26	-6.178927410666511e+26	3.001562217802686e+20	5.741015105447548e+26	-2.364783505657791e+21	1.3898096897037786e+23
8.453063882028934e+26	-7.833442030705466e+26	-1.243890012272127e+21	7.275081997212433e+26	-3.058728872517132e+21	3.055351577640816e+23
1.0674495479289626e+27	-9.927269492090457e+26	-5.913162982462551e+21	9.254429864008254e+26	-2.52919203361105e+21	5.6826124086101535e+23
1.3420691743251439e+27	-1.2559382166180756e+27	-1.3928387359055114e+22	1.1786352489382726e+27	-1.766707646485673e+21	9.458391134966759e+23
1.6808239326039492e+27	-1.584900603345889e+27	-2.663204200486651e+22	1.499553494722304e+27	-1.1543218053996602e+21	1.4611859683002258e+24
2.0987101937471545e+27	-1.9942285962864639e+27	-3.7335070603930195e+22	1.902770643254462e+27	-9.720583842650302e+21	2.148700568035054e+24
2.615057641988455e+27	-2.5020886161531556e+27	-7.69416466942375e+22	2.4056075181155223e+27	-5.946859785197294e+21	3.0558684843071656e+24
3.255202372808054e+27	-3.1315434298361895e+27	-9.819535844421687e+22	3.0291153801055447e+27	-4.450951107726764e+22	4.2537502999746204e+24
4.0514611070908453e+27	-3.9118032484299205e+27	-1.7970906250061297e+23	3.79949749866341e+27	-6.008958910120965e+22	5.850582914812944e+24
5.045479797521173e+27	-4.88021499744333e+27	-2.4400298881350728e+23	4.749900450915824e+27	-1.280103449309896e+23	8.024706901374019e+24
6.290282575531574e+27	-6.084478878975144e+27	-3.6637735853338164e+23	5.922779986711399e+27	-2.050600748407435e+23	1.0925412480291733e+25
7.852718424726614e+27	-7.585241262778938e+27	-5.3959087048367643e+23	7.372793012385132e+27	-3.0012934787634325e+23	1.4862706587615098e+25
9.816155657154556e+27	-9.459080699259108e+27	-7.23412026507689e+23	9.170073270747196e+27	-4.674557676858565e+23	2.0260350341181986e+25
1.2284176903367285e+28	-1.1802291345533572e+28	-9.294615911567044e+23	1.1404243318995138e+28	-6.561639414032937e+23	2.7636025473459614e+25
1.538506140027286e+28	-1.473504104977706e+28	-1.279834352422551e+24	1.418872416314933e+28	-7.786384681862613e+23	3.7997146580107486e+25
1.9275653342922735e+28	-1.8406364993920763e+28	-1.838059741509404e+24	1.7665971385618296e+28	-6.47459666922133e+23	5.223243115158766e+25
2.4148545965536988e+28	-2.2999910366940005e+28	-2.1918157777287888e+24	2.201304343509151e+28	-5.6376728434632934e+23	7.2429863842498145e+25
3.0233733309321975e+28	-2.873925185306754e+28	-2.2047158512852103e+24	2.7448716674479765e+28	-6.451682352726874e+23	1.0121941278172693e+26
3.7821405764703968e+28	-3.5901196959804755e+28	-2.6072321253491566e+24	3.4239441355633694e+28	-4.3114540667217524e+23	1.4384974030599579e+26
4.726079053691384e+28	-4.482053387427717e+28	-3.6073147588714174e+24	4.270995361435488e+28	3.199210035102524e+23	2.0879098883163496e+26
5.898977899282891e+28	-5.590970629154966e+28	-4.850837877711657e+24	5.325424379081892e+28	1.699662471042178e+24	3.0397672006869652e+26
7.3532726862897765e+28	-6.966237865055805e+28	3.920687323291463e+23	6.6345230812556945e+28	3.5004390028656246e+23	4.460282574440458e+26
9.157236217669725e+28	-8.669280033308827e+28	2.0225444017937598e+23	8.2568756694147e+28	6.117231701080884e+24	6.623551576917494e+26
1.1389764596623476e+29	-1.0769437094373098e+29	-3.605892314747857e+23	1.026013409683993e+29	7.69076805069268e+24	9.620171363322324e+26
1.414044571899802e+29	-1.3349381653069604e+29	1.4250162943102447e+25	1.2725680753920197e+29	-6.897577164208506e+23	1.3099655345894862e+27
1.749280228100712e+29	-1.649416067639544e+29	2.388576367189013e+25	1.574421786701971e+29	-8.471794327610696e+24	1.7333991973385385e+27
2.1592714901491503e+29	-2.032655808304078e+29	3.968352945751414e+25	1.9431855571089764e+29	-1.1514202012613522e+25	2.4776700195262665e+27
2.665356604120244e+29	-2.4992339317819727e+29	3.107226523151091e+25	2.3925917109003065e+29	2.177102850230517e+25	3.7657553407761403e+27
3.2907097342896665e+29	-3.0577034095660707e+29	2.3345614868645376e+24	2.9286216143531447e+29	4.463022433343726e+25	5.514038213728939e+27
4.051711475334281e+29	-3.7044811763564125e+29	-1.3427565764713665e+26	3.543858959128593e+29	1.7748422046795146e+26	7.553994898869552e+27
4.9401771897984776e+29	-4.421460462699891e+29	-1.2243910895791983e+26	4.2231079842578326e+29	1.2078595986799223e+26	9.792968498055121e+27
5.893184286512946e+29	-5.169191835283464e+29	-1.0500137292297235e+25	4.9375898430239816e+29	-2.6223452610911772e+25	1.113764265328044e+28
6.829437277921315e+29	-5.910906345111285e+29	2.262134411738909e+26	5.630781726753259e+29	-6.136463584097173e+24	1.079579456737458e+28
7.82419277525007e+29	-6.810278215672516e+29	2.5837785711397354e+26	6.445673657071364e+29	3.7896933830023734e+26	1.0558841162462807e+28
9.236916664459606e+29	-8.074077945479625e+29	1.6153527952745936e+26	7.496444759973286e+29	3.888182797352366e+25	1.1720239691874029e+28
1.12693859353152e+30	-9.606905519530007e+29	-5.591061441730348e+26	8.617232306696504e+29	2.4076493798995105e+26	1.6233545662196996e+28
1.3808115278357906e+30	-1.1100321675695023e+30	-1.9634522348395115e+26	1.0033977303017567e+30	7.934556050184464e+26	2.4393152018845884e+28
1.6881115393929685e+30	-1.2520183018323528e+30	-3.696449619180197e+26	1.047095680294866e+30	2.3685476145313873e+26	2.9829907474038244e+28
1.9738423208792584e+30	-1.429949192813052e+30	-1.7132403523872105e+26	1.1614720757880515e+30	-4.090656411190551e+26	2.9226644560202553e+28
2.2364711344513476e+30	-1.6487020628459653e+30	-2.089626124708752e+24	1.293077028265748e+30	1.2106360337458955e+27	2.2400193990197765e+28
2.5618372753129995e+30	-1.8298567522524234e+30	-1.1722213255005268e+27	1.4048443425590794e+30	9.329191900189966e+26	3.252060263030484e+28
3.0888534642593464e+30	-2.0346520167101133e+30	-9.926098977732243e+26	1.4665681017924532e+30	2.733639678527324e+27	6.860633526305086e+28
3.6444275030567764e+30	-2.216564001482005e+30	8.352041909168714e+26	1.4926188795050016e+30	-1.1197788792936535e+26	5.9116861799774735e+28
4.245147534085317e+30	-2.382769570035797e+30	-2.2737300422107312e+27	1.4601745543881575e+30	3.2958031615642213e+27	3.8402500748258313e+28
4.785905215854786e+30	-2.437953887869933e+30	3.191760182741376e+26	1.356191458449943e+30	4.09654623842301e+27	4.778633712488242e+28
5.459994506456455e+30	-2.3307764400003558e+30	7.482673523900238e+27	1.1939365796998762e+30	9.220309060507564e+27	6.50117211599973e+28
5.821551523058436e+30	-1.9662771017623944e+30	5.089387425728354e+26	9.298063894019614e+29	-4.577156502334289e+27	1.0524296653979076e+29
4.977639629267179e+30	-1.0424625373273411e+30	-1.761283848861804e+28	5.528366431162809e+29	2.2517694893635607e+27	2.399785451401911e+29
2.3182271767999867e+30	8.351459793715597e+28	-2.686109478786544e+26	3.0392430474015205e+29	-3.1912764430663646e+27	5.07354966583584e+29
5.856164095939509e+29	2.1886926420304302e+29	6.4930269643679115e+28	3.977834155177672e+29	6.486282017038064e+28	5.4105021162501554e+29
2.199657522682869e+29	6.561912447661349e+28	1.6442375399231778e+28	2.3360620576086005e+29	2.053943228815304e+28	3.6679691608825554e+29
1.0343566947024944e+29	2.434410347150515e+28	4.1067468683157016e+27	1.1764085591537128e+29	1.9936150282519676e+28	2.9789764882783397e+29
7.27314932017792e+28	1.0744134493086883e+28	2.4619390960025467e+27	8.234969600677365e+28	1.6118266627634274e+28	2.8085871257530673e+29
6.173306116798942e+28	6.568909823580487e+27	6.888410342846862e+26	7.457462079830596e+28	1.391157304385888e+28	2.7239064154761958e+29
3.841924377609281e+28	-5.862995833768389e+26	5.045009646619226e+26	5.230703218718967e+28	8.928442945084268e+27	2.9187653246266446e+29
2.577399216446137e+28	-4.549635386367682e+27	1.4873889009207882e+27	4.86393227343051e+28	9.695570948264359e+27	3.1300167681422975e+29
2.7506493791410224e+28	-2.1386982981269604e+27	1.4423633445862887e+27	4.657321153289109e+28	1.2701023653518993e+28	3.1534339833388462e+29
2.805794708121313e+28	-1.1286856366390362e+27	1.404244698037712e+27	3.931140149267788e+28	1.5365420413057394e+28	3.25101994771912e+29
