0.0	0.0	0.0	0.0	0.0	0.00024414062500000005
1.561690483720717e+20	-1.4774925899373e+20	-1.2902502707496348e+16	2.1140623576571026e+20	-9.059334074601669e+16	1.0001979173279711e+20
1.2809586871485927e+20	-2.533531142667786e+20	9.221250945316712e+16	5.928807546395689e+20	2.729095992762639e+16	2.8018526719658187e+20
3.873984608613124e+20	-3.9270155865103643e+20	9.33337876912414e+16	4.4580821259648415e+20	3.88960375988494e+17	4.748543022942664e+20
2.368713172719251e+21	-1.767628294742662e+21	1.6414381861270195e+17	1.3697636969517228e+21	3.502325721698614e+17	6.444569161359355e+20
6.632980310975978e+21	-6.641483580124451e+21	4.207877730102976e+17	6.73168583956219e+21	-7.017452778443657e+17	7.907525006371853e+20
1.7071364509623598e+22	-1.7480818170283348e+22	8.502882594835448e+17	1.8089741920752466e+22	-1.4174403733154483e+18	9.184931483937895e+20
5.667036126872079e+22	-5.235675042358136e+22	2.528350967528178e+18	4.8849394560115986e+22	-2.9509704412330117e+18	1.0467530762544797e+21
1.8225586749396532e+23	-1.711717487722403e+23	9.135518169319752e+18	1.619964010076315e+23	-7.74652907802375e+18	1.220514077869496e+21
5.4405978699579096e+23	-5.2658115801874684e+23	2.7726291684672668e+19	5.131162893992328e+23	-2.339694841408084e+19	1.5755654104649517e+21
1.6669993404176507e+24	-1.5965179755587922e+24	8.541504522036316e+19	1.5392442016741833e+24	-7.93855448109648e+19	2.653160702809882e+21
5.206135924520829e+24	-4.954257648578829e+24	2.3322444843233447e+20	4.745499751194092e+24	-2.3296975830762576e+20	6.425431822878106e+21
1.604251583592449e+25	-1.5363437713258848e+25	6.429170726879885e+20	1.4806355692110596e+25	-6.640741305645514e+20	1.9708659848681705e+22
4.925146402891253e+25	-4.727615493666678e+25	1.8446523768154373e+21	4.567550519198054e+25	-2.0040259239925816e+21	6.451127986830895e+22
1.5203918725649553e+26	-1.4582597235562974e+26	5.725935039218834e+21	1.4083488563057452e+26	-6.248077144404068e+21	2.304331178234182e+23
4.6941295955326424e+26	-4.509467557025286e+26	1.9278815431004785e+22	4.361679006300516e+26	-1.9020166173483134e+22	8.563164782240623e+23
1.446563503368874e+27	-1.3923304818843108e+27	5.918573044709796e+22	1.348668127789193e+27	-5.838056550027323e+22	3.172141930611141e+24
4.453022237780477e+27	-4.2878618727342123e+27	1.5626403866812706e+23	4.153015296121198e+27	-1.6750558403088925e+23	1.2044454252435356e+25
1.359584890484015e+28	-1.3074038461513185e+28	5.1293959000493134e+23	1.264022885481436e+28	-6.085878408948786e+23	5.035103850508197e+25
4.106528748662229e+28	-3.9227867737833733e+28	1.2185137564901301e+24	3.7664268211340776e+28	-1.04139889111954e+24	2.0810011733300554e+26
1.229350325492506e+29	-1.1621768305513898e+29	1.1950644236055577e+25	1.1091132527118368e+29	-8.931366438802501e+24	9.89279196952799e+26
3.567277754723747e+29	-3.346166040956078e+29	-2.5760787538633106e+25	3.234636839304183e+29	2.617136172578742e+25	5.660404751668647e+27
8.151511969457148e+29	-7.397013029420066e+29	8.253614236885965e+25	7.219786098955511e+29	1.8481817632846922e+25	1.244496317170279e+28
1.0763928900928212e+30	-9.315736765145917e+29	-5.424315757865389e+27	1.0881293850155242e+30	9.14436957921985e+27	1.21020037339297e+29
1.1080340388347973e+29	-8.362601912815527e+28	1.1953822793532706e+27	2.3652741326234476e+29	-1.6387864277844984e+27	5.031270525110285e+28
6.056674546439746e+28	-4.199276336184174e+28	9.450222078159755e+26	1.1811993055247436e+29	-1.6235442900610704e+27	2.7189465040160394e+28
4.152359359339955e+28	-3.9130731324787975e+28	1.8522471119427472e+27	9.05028238107954e+28	-1.6596154210510215e+27	1.596796087653745e+28
3.296693860109336e+28	-3.823732610007827e+28	2.2384091382963249e+27	8.793851974360784e+28	-2.4082273584890178e+27	1.1381226179538404e+28
3.6103920018626405e+28	-4.854098512595462e+28	1.3692862206011272e+27	1.1107774791480773e+29	-3.2384859830027803e+27	1.0360312702193542e+28
4.867973312548335e+28	-7.148720710131328e+28	-7.1791699701264e+26	1.7047016026988025e+29	-6.720894554943554e+26	1.3219158510247047e+28
7.333028298759821e+28	-1.1216710997044685e+29	-1.3711978786925496e+27	2.746620874670633e+29	3.600647753938793e+27	1.6908582123888901e+28
9.519077825791449e+28	-1.4729106105821418e+29	-2.453263195889028e+26	3.690253609712368e+29	1.5336159873160884e+27	1.9752430198695578e+28
1.1496102116794105e+29	-1.8141650584614503e+29	-1.83415763342561e+27	4.227923957999609e+29	1.571795689565667e+27	1.8479400978452666e+28
1.4547286948974974e+29	-2.3456993943265094e+29	2.1718353301031414e+27	5.397038191345751e+29	-1.4486553462611769e+26	2.40804034732391e+28
1.9029656119787154e+29	-3.3465421010217714e+29	-8.951591989576782e+25	8.151830330464187e+29	-1.4058972723051897e+27	2.655407874690171e+28
2.9611060765035726e+29	-5.511204830631169e+29	-1.350604881181256e+27	1.4345961429676953e+30	-1.1665387191077592e+28	4.05144658875442e+28
4.937217112010461e+29	-8.751964483486034e+29	-4.114052564557588e+26	2.3354419274039228e+30	-5.253632514229046e+27	8.060079222090002e+28
5.0409016142405435e+29	-8.712919964596457e+29	6.216603226649884e+26	2.5481077456300213e+30	4.985047766457001e+27	1.275870369318965e+29
4.694616494529746e+29	-7.996176135874872e+29	5.728598155077416e+26	2.3461054413999147e+30	4.981749135876816e+27	9.377095592799405e+28
4.715490072384382e+29	-7.632210757575136e+29	-1.4130209336643271e+28	2.0046124210191112e+30	5.318740980938509e+28	1.2865176183838124e+29
3.1572115738089858e+29	-4.660027992742106e+29	-2.7362657313527087e+28	1.5811782727084874e+30	4.794406865266938e+28	1.885494661386684e+29
2.126217267117248e+29	-2.055337659425907e+29	1.2629665550169706e+28	9.104554390017689e+29	-4.4185861843634265e+27	1.2890781958664952e+29
1.2773649114087717e+29	-9.602121662946662e+28	1.917436174117572e+27	4.820361718884511e+29	-1.256078619919358e+28	9.344780287335162e+28
9.037608340592545e+28	-6.875255083289176e+28	-1.0129652869987598e+27	2.988787105994511e+29	-9.697153791747716e+27	4.874530712198654e+28
7.805338811513316e+28	-6.703190605207429e+28	-1.2235480969484192e+27	2.2937249947153808e+29	-5.600197452886828e+27	3.420456647215745e+28
8.240251318642027e+28	-8.258079088290983e+28	-4.445479250710491e+26	2.2796646475437585e+29	-3.089822110737624e+27	2.935213602733384e+28
1.1041531146132e+29	-1.23130355637646e+29	-1.9864915686681976e+25	2.942366732361396e+29	-2.3767419903342216e+27	3.3609577957626794e+28
1.3050673707068929e+29	-1.5871079706455632e+29	-6.425748825043038e+27	3.803922113935246e+29	4.977959956729418e+27	4.0767514235732165e+28
1.5479128552134567e+29	-1.889423603842797e+29	5.129665314256492e+26	4.294912350758838e+29	3.6001351405915155e+27	3.7666968979830144e+28
1.9121117680537533e+29	-2.3606836394853646e+29	-6.290475409244314e+27	4.722159558206412e+29	4.7027081847852004e+27	3.2563321724078383e+28
2.2402430604250226e+29	-3.0627317181164386e+29	-7.551081177413939e+26	6.003266727492821e+29	1.5644633587231934e+28	4.862039182360524e+28
2.662191775661549e+29	-3.9368996353966646e+29	8.982043447107258e+27	8.44770112403928e+29	-2.4041828373358395e+27	7.56167459660221e+28
2.9031008437686085e+29	-4.417609840260272e+29	9.375438324578474e+27	1.079665688807928e+30	-1.2373261681269673e+28	5.803114395947566e+28
3.53878267940799e+29	-5.2766105796524474e+29	1.4497490750965987e+28	1.1846119868685029e+30	-1.4911602399734185e+28	8.718123295003525e+28
2.2983568339154158e+29	-3.103899119417394e+29	7.94669709940185e+27	8.685938755568657e+29	-9.204317281526257e+27	1.2719734567103411e+29
1.2862255221464118e+29	-1.4253578887346847e+29	-4.0080996747755165e+27	4.425002598909753e+29	2.353516456751253e+27	6.679256068934413e+28
1.0319623374691677e+29	-1.0447465733699211e+29	-4.7721977681342605e+27	3.1513079586763437e+29	6.13939693252629e+27	3.897512624230608e+28
9.731113398437119e+28	-1.1399974705318663e+29	-6.761201949947653e+26	3.155085049962969e+29	4.6343641994287953e+27	3.4271841821401224e+28
9.087631549003021e+28	-1.1097120343605539e+29	-3.0293340068274633e+27	3.4593771333258665e+29	7.267885612732597e+27	3.2886030654644237e+28
8.785229967022226e+28	-9.170624137513002e+28	-2.729369681984279e+27	3.4451831940892346e+29	4.8775889198270346e+27	3.9469826770464775e+28
8.302835036310182e+28	-7.80955586720106e+28	-1.098698112308305e+27	2.4870406217140436e+29	2.013376126813789e+27	2.7295803850999187e+28
