%!PS-Adobe-3.0 EPSF-3.0
%%Title: /scr/miquel/Projects/sub-grid/pablo-model/constant-case/100_100_34/plots/betaM.eps
%%Creator: matplotlib version 3.3.3, http://matplotlib.org/
%%CreationDate: Tue Feb  2 15:38:48 2021
%%Orientation: portrait
%%BoundingBox: 92.74000000000001 231.18150000000006 519.26 560.8185
%%EndComments
%%BeginProlog
/mpldict 9 dict def
mpldict begin
/m { moveto } bind def
/l { lineto } bind def
/r { rlineto } bind def
/c { curveto } bind def
/cl { closepath } bind def
/box {
      m
      1 index 0 r
      0 exch r
      neg 0 r
      cl
    } bind def
/clipbox {
      box
      clip
      newpath
    } bind def
%!PS-Adobe-3.0 Resource-Font
%%Title: DejaVu Sans
%%Copyright: Copyright (c) 2003 by Bitstream, Inc. All Rights Reserved. Copyright (c) 2006 by Tavmjong Bah. All Rights Reserved. DejaVu changes are in public domain 
%%Creator: Converted from TrueType to type 3 by PPR
25 dict begin
/_d{bind def}bind def
/_m{moveto}_d
/_l{lineto}_d
/_cl{closepath eofill}_d
/_c{curveto}_d
/_sc{7 -1 roll{setcachedevice}{pop pop pop pop pop pop}ifelse}_d
/_e{exec}_d
/FontName /DejaVuSans def
/PaintType 0 def
/FontMatrix[.001 0 0 .001 0 0]def
/FontBBox[-1021 -463 1793 1232]def
/FontType 3 def
/Encoding [ /space /comma /zero /one /two /three /four /five /six /seven /colon /E /I /L /M /N /O /R /S /T /U /bracketleft /bracketright /underscore /e /i /j /m /r /s /z /phi1 /minus ] def
/FontInfo 10 dict dup begin
/FamilyName (DejaVu Sans) def
/FullName (DejaVu Sans) def
/Notice (Copyright (c) 2003 by Bitstream, Inc. All Rights Reserved. Copyright (c) 2006 by Tavmjong Bah. All Rights Reserved. DejaVu changes are in public domain ) def
/Weight (Book) def
/Version (Version 2.35) def
/ItalicAngle 0.0 def
/isFixedPitch false def
/UnderlinePosition -130 def
/UnderlineThickness 90 def
end readonly def
/CharStrings 34 dict dup begin
/.notdef 0 def
/space{318 0 0 0 0 0 _sc
}_d
/comma{318 0 77 -115 220 124 _sc
117 124 _m
220 124 _l
220 40 _l
140 -115 _l
77 -115 _l
117 40 _l
117 124 _l
_cl}_d
/zero{636 0 66 -13 570 742 _sc
318 664 _m
267 664 229 639 203 589 _c
177 539 165 464 165 364 _c
165 264 177 189 203 139 _c
229 89 267 64 318 64 _c
369 64 407 89 433 139 _c
458 189 471 264 471 364 _c
471 464 458 539 433 589 _c
407 639 369 664 318 664 _c
318 742 _m
399 742 461 709 505 645 _c
548 580 570 486 570 364 _c
570 241 548 147 505 83 _c
461 19 399 -13 318 -13 _c
236 -13 173 19 130 83 _c
87 147 66 241 66 364 _c
66 486 87 580 130 645 _c
173 709 236 742 318 742 _c
_cl}_d
/one{636 0 110 0 544 729 _sc
124 83 _m
285 83 _l
285 639 _l
110 604 _l
110 694 _l
284 729 _l
383 729 _l
383 83 _l
544 83 _l
544 0 _l
124 0 _l
124 83 _l
_cl}_d
/two{{636 0 73 0 536 742 _sc
192 83 _m
536 83 _l
536 0 _l
73 0 _l
73 83 _l
110 121 161 173 226 239 _c
290 304 331 346 348 365 _c
380 400 402 430 414 455 _c
426 479 433 504 433 528 _c
433 566 419 598 392 622 _c
365 646 330 659 286 659 _c
255 659 222 653 188 643 _c
154 632 117 616 78 594 _c
78 694 _l
118 710 155 722 189 730 _c
223 738 255 742 284 742 _c
}_e{359 742 419 723 464 685 _c
509 647 532 597 532 534 _c
532 504 526 475 515 449 _c
504 422 484 390 454 354 _c
446 344 420 317 376 272 _c
332 227 271 164 192 83 _c
_cl}_e}_d
/three{{636 0 76 -13 556 742 _sc
406 393 _m
453 383 490 362 516 330 _c
542 298 556 258 556 212 _c
556 140 531 84 482 45 _c
432 6 362 -13 271 -13 _c
240 -13 208 -10 176 -4 _c
144 1 110 10 76 22 _c
76 117 _l
103 101 133 89 166 81 _c
198 73 232 69 268 69 _c
330 69 377 81 409 105 _c
441 129 458 165 458 212 _c
458 254 443 288 413 312 _c
383 336 341 349 287 349 _c
}_e{202 349 _l
202 430 _l
291 430 _l
339 430 376 439 402 459 _c
428 478 441 506 441 543 _c
441 580 427 609 401 629 _c
374 649 336 659 287 659 _c
260 659 231 656 200 650 _c
169 644 135 635 98 623 _c
98 711 _l
135 721 170 729 203 734 _c
235 739 266 742 296 742 _c
370 742 429 725 473 691 _c
517 657 539 611 539 553 _c
539 513 527 479 504 451 _c
481 423 448 403 406 393 _c
_cl}_e}_d
/four{636 0 49 0 580 729 _sc
378 643 _m
129 254 _l
378 254 _l
378 643 _l
352 729 _m
476 729 _l
476 254 _l
580 254 _l
580 172 _l
476 172 _l
476 0 _l
378 0 _l
378 172 _l
49 172 _l
49 267 _l
352 729 _l
_cl}_d
/five{{636 0 77 -13 549 729 _sc
108 729 _m
495 729 _l
495 646 _l
198 646 _l
198 467 _l
212 472 227 476 241 478 _c
255 480 270 482 284 482 _c
365 482 429 459 477 415 _c
525 370 549 310 549 234 _c
549 155 524 94 475 51 _c
426 8 357 -13 269 -13 _c
238 -13 207 -10 175 -6 _c
143 -1 111 6 77 17 _c
77 116 _l
106 100 136 88 168 80 _c
199 72 232 69 267 69 _c
}_e{323 69 368 83 401 113 _c
433 143 450 183 450 234 _c
450 284 433 324 401 354 _c
368 384 323 399 267 399 _c
241 399 214 396 188 390 _c
162 384 135 375 108 363 _c
108 729 _l
_cl}_e}_d
/six{{636 0 70 -13 573 742 _sc
330 404 _m
286 404 251 388 225 358 _c
199 328 186 286 186 234 _c
186 181 199 139 225 109 _c
251 79 286 64 330 64 _c
374 64 409 79 435 109 _c
461 139 474 181 474 234 _c
474 286 461 328 435 358 _c
409 388 374 404 330 404 _c
526 713 _m
526 623 _l
501 635 476 644 451 650 _c
425 656 400 659 376 659 _c
310 659 260 637 226 593 _c
}_e{192 549 172 482 168 394 _c
187 422 211 444 240 459 _c
269 474 301 482 336 482 _c
409 482 467 459 509 415 _c
551 371 573 310 573 234 _c
573 159 550 99 506 54 _c
462 9 403 -13 330 -13 _c
246 -13 181 19 137 83 _c
92 147 70 241 70 364 _c
70 479 97 571 152 639 _c
206 707 280 742 372 742 _c
396 742 421 739 447 735 _c
472 730 498 723 526 713 _c
_cl}_e}_d
/seven{636 0 82 0 551 729 _sc
82 729 _m
551 729 _l
551 687 _l
286 0 _l
183 0 _l
432 646 _l
82 646 _l
82 729 _l
_cl}_d
/colon{337 0 117 0 220 517 _sc
117 124 _m
220 124 _l
220 0 _l
117 0 _l
117 124 _l
117 517 _m
220 517 _l
220 393 _l
117 393 _l
117 517 _l
_cl}_d
/E{632 0 98 0 568 729 _sc
98 729 _m
559 729 _l
559 646 _l
197 646 _l
197 430 _l
544 430 _l
544 347 _l
197 347 _l
197 83 _l
568 83 _l
568 0 _l
98 0 _l
98 729 _l
_cl}_d
/I{295 0 98 0 197 729 _sc
98 729 _m
197 729 _l
197 0 _l
98 0 _l
98 729 _l
_cl}_d
/L{557 0 98 0 552 729 _sc
98 729 _m
197 729 _l
197 83 _l
552 83 _l
552 0 _l
98 0 _l
98 729 _l
_cl}_d
/M{863 0 98 0 765 729 _sc
98 729 _m
245 729 _l
431 233 _l
618 729 _l
765 729 _l
765 0 _l
669 0 _l
669 640 _l
481 140 _l
382 140 _l
194 640 _l
194 0 _l
98 0 _l
98 729 _l
_cl}_d
/N{748 0 98 0 650 729 _sc
98 729 _m
231 729 _l
554 119 _l
554 729 _l
650 729 _l
650 0 _l
517 0 _l
194 610 _l
194 0 _l
98 0 _l
98 729 _l
_cl}_d
/O{787 0 56 -13 731 742 _sc
394 662 _m
322 662 265 635 223 582 _c
181 528 160 456 160 364 _c
160 272 181 199 223 146 _c
265 92 322 66 394 66 _c
465 66 522 92 564 146 _c
606 199 627 272 627 364 _c
627 456 606 528 564 582 _c
522 635 465 662 394 662 _c
394 742 _m
496 742 577 707 639 639 _c
700 571 731 479 731 364 _c
731 248 700 157 639 89 _c
577 21 496 -13 394 -13 _c
291 -13 209 21 148 89 _c
86 157 56 248 56 364 _c
56 479 86 571 148 639 _c
209 707 291 742 394 742 _c
_cl}_d
/R{{695 0 98 0 666 729 _sc
444 342 _m
465 334 486 319 506 296 _c
526 272 546 240 566 199 _c
666 0 _l
560 0 _l
467 187 _l
443 235 419 268 397 284 _c
374 300 343 308 304 308 _c
197 308 _l
197 0 _l
98 0 _l
98 729 _l
321 729 _l
404 729 466 711 507 677 _c
548 642 569 589 569 519 _c
569 473 558 434 537 404 _c
515 374 484 353 444 342 _c
197 648 _m
197 389 _l
321 389 _l
}_e{368 389 404 400 428 422 _c
452 444 465 476 465 519 _c
465 561 452 593 428 615 _c
404 637 368 648 321 648 _c
197 648 _l
_cl}_e}_d
/S{{635 0 66 -13 579 742 _sc
535 705 _m
535 609 _l
497 627 462 640 429 649 _c
395 657 363 662 333 662 _c
279 662 237 651 208 631 _c
179 610 165 580 165 542 _c
165 510 174 485 194 469 _c
213 452 250 439 304 429 _c
364 417 _l
437 403 491 378 526 343 _c
561 307 579 260 579 201 _c
579 130 555 77 508 41 _c
460 5 391 -13 300 -13 _c
265 -13 228 -9 189 -2 _c
}_e{150 5 110 16 69 32 _c
69 134 _l
109 111 148 94 186 83 _c
224 71 262 66 300 66 _c
356 66 399 77 430 99 _c
460 121 476 152 476 194 _c
476 230 465 258 443 278 _c
421 298 385 313 335 323 _c
275 335 _l
201 349 148 372 115 404 _c
82 435 66 478 66 534 _c
66 598 88 649 134 686 _c
179 723 242 742 322 742 _c
356 742 390 739 426 733 _c
461 727 497 717 535 705 _c
}_e{_cl}_e}_d
/T{611 0 -2 0 614 729 _sc
-2 729 _m
614 729 _l
614 646 _l
355 646 _l
355 0 _l
256 0 _l
256 646 _l
-2 646 _l
-2 729 _l
_cl}_d
/U{732 0 87 -13 645 729 _sc
87 729 _m
186 729 _l
186 286 _l
186 208 200 151 228 117 _c
256 83 302 66 366 66 _c
429 66 475 83 503 117 _c
531 151 546 208 546 286 _c
546 729 _l
645 729 _l
645 274 _l
645 178 621 107 574 59 _c
527 11 458 -13 366 -13 _c
274 -13 204 11 157 59 _c
110 107 87 178 87 274 _c
87 729 _l
_cl}_d
/bracketleft{390 0 86 -131 293 760 _sc
86 760 _m
293 760 _l
293 690 _l
176 690 _l
176 -61 _l
293 -61 _l
293 -131 _l
86 -131 _l
86 760 _l
_cl}_d
/bracketright{390 0 97 -131 304 760 _sc
304 760 _m
304 -131 _l
97 -131 _l
97 -61 _l
214 -61 _l
214 690 _l
97 690 _l
97 760 _l
304 760 _l
_cl}_d
/underscore{500 0 -9 -235 510 -165 _sc
510 -165 _m
510 -235 _l
-9 -235 _l
-9 -165 _l
510 -165 _l
_cl}_d
/e{{615 0 55 -13 562 560 _sc
562 296 _m
562 252 _l
149 252 _l
153 190 171 142 205 110 _c
238 78 284 62 344 62 _c
378 62 412 66 444 74 _c
476 82 509 95 541 113 _c
541 28 _l
509 14 476 3 442 -3 _c
408 -9 373 -13 339 -13 _c
251 -13 182 12 131 62 _c
80 112 55 181 55 268 _c
55 357 79 428 127 481 _c
175 533 241 560 323 560 _c
397 560 455 536 498 489 _c
}_e{540 441 562 377 562 296 _c
472 322 _m
471 371 457 410 431 440 _c
404 469 368 484 324 484 _c
274 484 234 469 204 441 _c
174 413 156 373 152 322 _c
472 322 _l
_cl}_e}_d
/i{278 0 94 0 184 760 _sc
94 547 _m
184 547 _l
184 0 _l
94 0 _l
94 547 _l
94 760 _m
184 760 _l
184 646 _l
94 646 _l
94 760 _l
_cl}_d
/j{278 0 -17 -207 184 760 _sc
94 547 _m
184 547 _l
184 -9 _l
184 -78 170 -128 144 -160 _c
117 -191 74 -207 16 -207 _c
-17 -207 _l
-17 -131 _l
6 -131 _l
40 -131 63 -123 75 -107 _c
87 -91 94 -58 94 -9 _c
94 547 _l
94 760 _m
184 760 _l
184 646 _l
94 646 _l
94 760 _l
_cl}_d
/m{{974 0 91 0 889 560 _sc
520 442 _m
542 482 569 511 600 531 _c
631 550 668 560 711 560 _c
767 560 811 540 842 500 _c
873 460 889 403 889 330 _c
889 0 _l
799 0 _l
799 327 _l
799 379 789 418 771 444 _c
752 469 724 482 686 482 _c
639 482 602 466 575 435 _c
548 404 535 362 535 309 _c
535 0 _l
445 0 _l
445 327 _l
445 379 435 418 417 444 _c
398 469 369 482 331 482 _c
}_e{285 482 248 466 221 435 _c
194 404 181 362 181 309 _c
181 0 _l
91 0 _l
91 547 _l
181 547 _l
181 462 _l
201 495 226 520 255 536 _c
283 552 317 560 357 560 _c
397 560 430 550 458 530 _c
486 510 506 480 520 442 _c
_cl}_e}_d
/r{411 0 91 0 411 560 _sc
411 463 _m
401 469 390 473 378 476 _c
366 478 353 480 339 480 _c
288 480 249 463 222 430 _c
194 397 181 350 181 288 _c
181 0 _l
91 0 _l
91 547 _l
181 547 _l
181 462 _l
199 495 224 520 254 536 _c
284 552 321 560 365 560 _c
371 560 378 559 386 559 _c
393 558 401 557 411 555 _c
411 463 _l
_cl}_d
/s{{521 0 54 -13 472 560 _sc
443 531 _m
443 446 _l
417 458 391 468 364 475 _c
336 481 308 485 279 485 _c
234 485 200 478 178 464 _c
156 450 145 430 145 403 _c
145 382 153 366 169 354 _c
185 342 217 330 265 320 _c
296 313 _l
360 299 405 279 432 255 _c
458 230 472 195 472 151 _c
472 100 452 60 412 31 _c
372 1 316 -13 246 -13 _c
216 -13 186 -10 154 -5 _c
}_e{122 0 89 8 54 20 _c
54 113 _l
87 95 120 82 152 74 _c
184 65 216 61 248 61 _c
290 61 323 68 346 82 _c
368 96 380 117 380 144 _c
380 168 371 187 355 200 _c
339 213 303 226 247 238 _c
216 245 _l
160 257 119 275 95 299 _c
70 323 58 356 58 399 _c
58 450 76 490 112 518 _c
148 546 200 560 268 560 _c
301 560 332 557 362 552 _c
391 547 418 540 443 531 _c
}_e{_cl}_e}_d
/z{525 0 43 0 482 547 _sc
55 547 _m
482 547 _l
482 465 _l
144 72 _l
482 72 _l
482 0 _l
43 0 _l
43 82 _l
381 475 _l
55 475 _l
55 547 _l
_cl}_d
/phi1{{660 0 55 -207 602 760 _sc
373 760 _m
373 558 _l
437 558 491 533 535 483 _c
579 432 602 362 602 273 _c
602 183 579 113 535 63 _c
491 13 437 -11 373 -11 _c
373 -207 _l
284 -207 _l
284 -11 _l
219 -11 165 13 121 63 _c
77 113 55 183 55 273 _c
55 362 77 432 121 483 _c
165 533 219 558 284 558 _c
284 760 _l
373 760 _l
373 68 _m
409 68 440 84 466 118 _c
}_e{493 155 507 207 507 273 _c
507 338 494 390 466 428 _c
440 461 409 478 373 478 _c
373 68 _l
284 68 _m
284 478 _l
247 478 216 461 191 428 _c
163 390 149 338 149 273 _c
149 207 163 155 191 118 _c
216 84 247 68 284 68 _c
_cl}_e}_d
/minus{838 0 106 272 732 355 _sc
106 355 _m
732 355 _l
732 272 _l
106 272 _l
106 355 _l
_cl}_d
end readonly def

/BuildGlyph
 {exch begin
 CharStrings exch
 2 copy known not{pop /.notdef}if
 true 3 1 roll get exec
 end}_d

/BuildChar {
 1 index /Encoding get exch get
 1 index /BuildGlyph get exec
}_d

FontName currentdict end definefont pop
%!PS-Adobe-3.0 Resource-Font
%%Title: DejaVu Sans Oblique
%%Copyright: Copyright (c) 2003 by Bitstream, Inc. All Rights Reserved. Copyright (c) 2006 by Tavmjong Bah. All Rights Reserved. DejaVu changes are in public domain 
%%Creator: Converted from TrueType to type 3 by PPR
25 dict begin
/_d{bind def}bind def
/_m{moveto}_d
/_l{lineto}_d
/_cl{closepath eofill}_d
/_c{curveto}_d
/_sc{7 -1 roll{setcachedevice}{pop pop pop pop pop pop}ifelse}_d
/_e{exec}_d
/FontName /DejaVuSans-Oblique def
/PaintType 0 def
/FontMatrix[.001 0 0 .001 0 0]def
/FontBBox[-1016 -350 1659 1068]def
/FontType 3 def
/Encoding [ /beta ] def
/FontInfo 10 dict dup begin
/FamilyName (DejaVu Sans) def
/FullName (DejaVu Sans Oblique) def
/Notice (Copyright (c) 2003 by Bitstream, Inc. All Rights Reserved. Copyright (c) 2006 by Tavmjong Bah. All Rights Reserved. DejaVu changes are in public domain ) def
/Weight (Oblique) def
/Version (Version 2.35) def
/ItalicAngle -11.0 def
/isFixedPitch false def
/UnderlinePosition -130 def
/UnderlineThickness 90 def
end readonly def
/CharStrings 2 dict dup begin
/.notdef 0 def
/beta{{638 0 0 -207 572 766 _sc
136 34 _m
89 -207 _l
0 -207 _l
145 543 _l
173 691 257 766 396 766 _c
536 766 595 703 572 578 _c
555 488 515 428 452 396 _c
537 366 571 308 555 221 _c
525 67 432 -9 275 -9 _c
205 -9 159 5 136 34 _c
159 151 _m
184 94 229 66 293 66 _c
387 66 443 117 463 220 _c
481 311 414 353 262 347 _c
278 430 _l
396 428 465 480 485 586 _c
}_e{499 657 468 693 392 693 _c
306 693 254 642 235 541 _c
159 151 _l
_cl}_e}_d
end readonly def

/BuildGlyph
 {exch begin
 CharStrings exch
 2 copy known not{pop /.notdef}if
 true 3 1 roll get exec
 end}_d

/BuildChar {
 1 index /Encoding get exch get
 1 index /BuildGlyph get exec
}_d

FontName currentdict end definefont pop
end
%%EndProlog
mpldict begin
92.74 231.182 translate
426.52 329.637 0 0 clipbox
gsave
0 0 m
426.52 0 l
426.52 329.637 l
0 329.637 l
cl
1.000 setgray
fill
grestore
gsave
62.2 41.41875 m
419.32 41.41875 l
419.32 307.53075 l
62.2 307.53075 l
cl
1.000 setgray
fill
grestore
0.800 setlinewidth
1 setlinejoin
0 setlinecap
[] 0 setdash
0.000 setgray
gsave
/o {
gsave
newpath
translate
0.8 setlinewidth
1 setlinejoin
0 setlinecap
0 0 m
0 -3.5 l

gsave
0.000 setgray
fill
grestore
stroke
grestore
} bind def
72.9301 41.4188 o
grestore
/DejaVuSans findfont
10.000 scalefont
setfont
gsave
69.750420 26.825000 translate
0.000000 rotate
0.000000 0 m /zero glyphshow
grestore
gsave
/o {
gsave
newpath
translate
0.8 setlinewidth
1 setlinejoin
0 setlinecap
0 0 m
0 -3.5 l

gsave
0.000 setgray
fill
grestore
stroke
grestore
} bind def
127.956 41.4188 o
grestore
gsave
124.776615 26.825000 translate
0.000000 rotate
0.000000 0 m /one glyphshow
grestore
gsave
/o {
gsave
newpath
translate
0.8 setlinewidth
1 setlinejoin
0 setlinecap
0 0 m
0 -3.5 l

gsave
0.000 setgray
fill
grestore
stroke
grestore
} bind def
182.982 41.4188 o
grestore
gsave
179.802809 26.825000 translate
0.000000 rotate
0.000000 0 m /two glyphshow
grestore
gsave
/o {
gsave
newpath
translate
0.8 setlinewidth
1 setlinejoin
0 setlinecap
0 0 m
0 -3.5 l

gsave
0.000 setgray
fill
grestore
stroke
grestore
} bind def
238.009 41.4188 o
grestore
gsave
234.829003 26.825000 translate
0.000000 rotate
0.000000 0 m /three glyphshow
grestore
gsave
/o {
gsave
newpath
translate
0.8 setlinewidth
1 setlinejoin
0 setlinecap
0 0 m
0 -3.5 l

gsave
0.000 setgray
fill
grestore
stroke
grestore
} bind def
293.035 41.4188 o
grestore
gsave
289.855197 26.825000 translate
0.000000 rotate
0.000000 0 m /four glyphshow
grestore
gsave
/o {
gsave
newpath
translate
0.8 setlinewidth
1 setlinejoin
0 setlinecap
0 0 m
0 -3.5 l

gsave
0.000 setgray
fill
grestore
stroke
grestore
} bind def
348.061 41.4188 o
grestore
gsave
344.881391 26.825000 translate
0.000000 rotate
0.000000 0 m /five glyphshow
grestore
gsave
/o {
gsave
newpath
translate
0.8 setlinewidth
1 setlinejoin
0 setlinecap
0 0 m
0 -3.5 l

gsave
0.000 setgray
fill
grestore
stroke
grestore
} bind def
403.087 41.4188 o
grestore
gsave
399.907585 26.825000 translate
0.000000 rotate
0.000000 0 m /six glyphshow
grestore
/DejaVuSans findfont
14.000 scalefont
setfont
gsave
205.439688 10.106250 translate
0.000000 rotate
0.000000 0 m /T glyphshow
8.176758 0 m /i glyphshow
12.066406 0 m /m glyphshow
25.704102 0 m /e glyphshow
34.317383 0 m /space glyphshow
38.767578 0 m /bracketleft glyphshow
44.229492 0 m /m glyphshow
57.867188 0 m /s glyphshow
65.161133 0 m /bracketright glyphshow
grestore
gsave
/o {
gsave
newpath
translate
0.8 setlinewidth
1 setlinejoin
0 setlinecap
-0 0 m
-3.5 0 l

gsave
0.000 setgray
fill
grestore
stroke
grestore
} bind def
62.2 69.5482 o
grestore
gsave
27.200000 65.587242 translate
0.000000 rotate
/DejaVuSans findfont
10.0 scalefont
setfont
0.000000 0.064063 moveto
/one glyphshow
6.362305 0.064063 moveto
/zero glyphshow
/DejaVuSans findfont
7.0 scalefont
setfont
12.820312 3.892188 moveto
/minus glyphshow
18.685547 3.892188 moveto
/four glyphshow
23.139160 3.892188 moveto
/seven glyphshow

grestore
gsave
/o {
gsave
newpath
translate
0.8 setlinewidth
1 setlinejoin
0 setlinecap
-0 0 m
-3.5 0 l

gsave
0.000 setgray
fill
grestore
stroke
grestore
} bind def
62.2 109.059 o
grestore
gsave
27.200000 104.597751 translate
0.000000 rotate
/DejaVuSans findfont
10.0 scalefont
setfont
0.000000 0.976562 moveto
/one glyphshow
6.362305 0.976562 moveto
/zero glyphshow
/DejaVuSans findfont
7.0 scalefont
setfont
12.820312 4.804688 moveto
/minus glyphshow
18.685547 4.804688 moveto
/four glyphshow
23.139160 4.804688 moveto
/six glyphshow

grestore
gsave
/o {
gsave
newpath
translate
0.8 setlinewidth
1 setlinejoin
0 setlinecap
-0 0 m
-3.5 0 l

gsave
0.000 setgray
fill
grestore
stroke
grestore
} bind def
62.2 148.569 o
grestore
gsave
27.200000 144.608260 translate
0.000000 rotate
/DejaVuSans findfont
10.0 scalefont
setfont
0.000000 0.064063 moveto
/one glyphshow
6.362305 0.064063 moveto
/zero glyphshow
/DejaVuSans findfont
7.0 scalefont
setfont
12.820312 3.892188 moveto
/minus glyphshow
18.685547 3.892188 moveto
/four glyphshow
23.139160 3.892188 moveto
/five glyphshow

grestore
gsave
/o {
gsave
newpath
translate
0.8 setlinewidth
1 setlinejoin
0 setlinecap
-0 0 m
-3.5 0 l

gsave
0.000 setgray
fill
grestore
stroke
grestore
} bind def
62.2 188.08 o
grestore
gsave
27.200000 184.118769 translate
0.000000 rotate
/DejaVuSans findfont
10.0 scalefont
setfont
0.000000 0.064063 moveto
/one glyphshow
6.362305 0.064063 moveto
/zero glyphshow
/DejaVuSans findfont
7.0 scalefont
setfont
12.820312 3.892188 moveto
/minus glyphshow
18.685547 3.892188 moveto
/four glyphshow
23.139160 3.892188 moveto
/four glyphshow

grestore
gsave
/o {
gsave
newpath
translate
0.8 setlinewidth
1 setlinejoin
0 setlinecap
-0 0 m
-3.5 0 l

gsave
0.000 setgray
fill
grestore
stroke
grestore
} bind def
62.2 227.59 o
grestore
gsave
27.200000 223.129279 translate
0.000000 rotate
/DejaVuSans findfont
10.0 scalefont
setfont
0.000000 0.976562 moveto
/one glyphshow
6.362305 0.976562 moveto
/zero glyphshow
/DejaVuSans findfont
7.0 scalefont
setfont
12.820312 4.804688 moveto
/minus glyphshow
18.685547 4.804688 moveto
/four glyphshow
23.139160 4.804688 moveto
/three glyphshow

grestore
gsave
/o {
gsave
newpath
translate
0.8 setlinewidth
1 setlinejoin
0 setlinecap
-0 0 m
-3.5 0 l

gsave
0.000 setgray
fill
grestore
stroke
grestore
} bind def
62.2 267.101 o
grestore
gsave
27.200000 262.639788 translate
0.000000 rotate
/DejaVuSans findfont
10.0 scalefont
setfont
0.000000 0.976562 moveto
/one glyphshow
6.362305 0.976562 moveto
/zero glyphshow
/DejaVuSans findfont
7.0 scalefont
setfont
12.820312 4.804688 moveto
/minus glyphshow
18.685547 4.804688 moveto
/four glyphshow
23.139160 4.804688 moveto
/two glyphshow

grestore
gsave
/o {
gsave
newpath
translate
0.8 setlinewidth
1 setlinejoin
0 setlinecap
-0 0 m
-3.5 0 l

gsave
0.000 setgray
fill
grestore
stroke
grestore
} bind def
62.2 306.611 o
grestore
gsave
27.200000 302.650297 translate
0.000000 rotate
/DejaVuSans findfont
10.0 scalefont
setfont
0.000000 0.064063 moveto
/one glyphshow
6.362305 0.064063 moveto
/zero glyphshow
/DejaVuSans findfont
7.0 scalefont
setfont
12.820312 3.892188 moveto
/minus glyphshow
18.685547 3.892188 moveto
/four glyphshow
23.139160 3.892188 moveto
/one glyphshow

grestore
0.600 setlinewidth
gsave
/o {
gsave
newpath
translate
0.6 setlinewidth
1 setlinejoin
0 setlinecap
-0 0 m
-2 0 l

gsave
0.000 setgray
fill
grestore
stroke
grestore
} bind def
62.2 41.9315 o
grestore
gsave
/o {
gsave
newpath
translate
0.6 setlinewidth
1 setlinejoin
0 setlinecap
-0 0 m
-2 0 l

gsave
0.000 setgray
fill
grestore
stroke
grestore
} bind def
62.2 48.889 o
grestore
gsave
/o {
gsave
newpath
translate
0.6 setlinewidth
1 setlinejoin
0 setlinecap
-0 0 m
-2 0 l

gsave
0.000 setgray
fill
grestore
stroke
grestore
} bind def
62.2 53.8254 o
grestore
gsave
/o {
gsave
newpath
translate
0.6 setlinewidth
1 setlinejoin
0 setlinecap
-0 0 m
-2 0 l

gsave
0.000 setgray
fill
grestore
stroke
grestore
} bind def
62.2 57.6543 o
grestore
gsave
/o {
gsave
newpath
translate
0.6 setlinewidth
1 setlinejoin
0 setlinecap
-0 0 m
-2 0 l

gsave
0.000 setgray
fill
grestore
stroke
grestore
} bind def
62.2 60.7828 o
grestore
gsave
/o {
gsave
newpath
translate
0.6 setlinewidth
1 setlinejoin
0 setlinecap
-0 0 m
-2 0 l

gsave
0.000 setgray
fill
grestore
stroke
grestore
} bind def
62.2 63.4279 o
grestore
gsave
/o {
gsave
newpath
translate
0.6 setlinewidth
1 setlinejoin
0 setlinecap
-0 0 m
-2 0 l

gsave
0.000 setgray
fill
grestore
stroke
grestore
} bind def
62.2 65.7192 o
grestore
gsave
/o {
gsave
newpath
translate
0.6 setlinewidth
1 setlinejoin
0 setlinecap
-0 0 m
-2 0 l

gsave
0.000 setgray
fill
grestore
stroke
grestore
} bind def
62.2 67.7403 o
grestore
gsave
/o {
gsave
newpath
translate
0.6 setlinewidth
1 setlinejoin
0 setlinecap
-0 0 m
-2 0 l

gsave
0.000 setgray
fill
grestore
stroke
grestore
} bind def
62.2 81.442 o
grestore
gsave
/o {
gsave
newpath
translate
0.6 setlinewidth
1 setlinejoin
0 setlinecap
-0 0 m
-2 0 l

gsave
0.000 setgray
fill
grestore
stroke
grestore
} bind def
62.2 88.3995 o
grestore
gsave
/o {
gsave
newpath
translate
0.6 setlinewidth
1 setlinejoin
0 setlinecap
-0 0 m
-2 0 l

gsave
0.000 setgray
fill
grestore
stroke
grestore
} bind def
62.2 93.3359 o
grestore
gsave
/o {
gsave
newpath
translate
0.6 setlinewidth
1 setlinejoin
0 setlinecap
-0 0 m
-2 0 l

gsave
0.000 setgray
fill
grestore
stroke
grestore
} bind def
62.2 97.1648 o
grestore
gsave
/o {
gsave
newpath
translate
0.6 setlinewidth
1 setlinejoin
0 setlinecap
-0 0 m
-2 0 l

gsave
0.000 setgray
fill
grestore
stroke
grestore
} bind def
62.2 100.293 o
grestore
gsave
/o {
gsave
newpath
translate
0.6 setlinewidth
1 setlinejoin
0 setlinecap
-0 0 m
-2 0 l

gsave
0.000 setgray
fill
grestore
stroke
grestore
} bind def
62.2 102.938 o
grestore
gsave
/o {
gsave
newpath
translate
0.6 setlinewidth
1 setlinejoin
0 setlinecap
-0 0 m
-2 0 l

gsave
0.000 setgray
fill
grestore
stroke
grestore
} bind def
62.2 105.23 o
grestore
gsave
/o {
gsave
newpath
translate
0.6 setlinewidth
1 setlinejoin
0 setlinecap
-0 0 m
-2 0 l

gsave
0.000 setgray
fill
grestore
stroke
grestore
} bind def
62.2 107.251 o
grestore
gsave
/o {
gsave
newpath
translate
0.6 setlinewidth
1 setlinejoin
0 setlinecap
-0 0 m
-2 0 l

gsave
0.000 setgray
fill
grestore
stroke
grestore
} bind def
62.2 120.953 o
grestore
gsave
/o {
gsave
newpath
translate
0.6 setlinewidth
1 setlinejoin
0 setlinecap
-0 0 m
-2 0 l

gsave
0.000 setgray
fill
grestore
stroke
grestore
} bind def
62.2 127.91 o
grestore
gsave
/o {
gsave
newpath
translate
0.6 setlinewidth
1 setlinejoin
0 setlinecap
-0 0 m
-2 0 l

gsave
0.000 setgray
fill
grestore
stroke
grestore
} bind def
62.2 132.846 o
grestore
gsave
/o {
gsave
newpath
translate
0.6 setlinewidth
1 setlinejoin
0 setlinecap
-0 0 m
-2 0 l

gsave
0.000 setgray
fill
grestore
stroke
grestore
} bind def
62.2 136.675 o
grestore
gsave
/o {
gsave
newpath
translate
0.6 setlinewidth
1 setlinejoin
0 setlinecap
-0 0 m
-2 0 l

gsave
0.000 setgray
fill
grestore
stroke
grestore
} bind def
62.2 139.804 o
grestore
gsave
/o {
gsave
newpath
translate
0.6 setlinewidth
1 setlinejoin
0 setlinecap
-0 0 m
-2 0 l

gsave
0.000 setgray
fill
grestore
stroke
grestore
} bind def
62.2 142.449 o
grestore
gsave
/o {
gsave
newpath
translate
0.6 setlinewidth
1 setlinejoin
0 setlinecap
-0 0 m
-2 0 l

gsave
0.000 setgray
fill
grestore
stroke
grestore
} bind def
62.2 144.74 o
grestore
gsave
/o {
gsave
newpath
translate
0.6 setlinewidth
1 setlinejoin
0 setlinecap
-0 0 m
-2 0 l

gsave
0.000 setgray
fill
grestore
stroke
grestore
} bind def
62.2 146.761 o
grestore
gsave
/o {
gsave
newpath
translate
0.6 setlinewidth
1 setlinejoin
0 setlinecap
-0 0 m
-2 0 l

gsave
0.000 setgray
fill
grestore
stroke
grestore
} bind def
62.2 160.463 o
grestore
gsave
/o {
gsave
newpath
translate
0.6 setlinewidth
1 setlinejoin
0 setlinecap
-0 0 m
-2 0 l

gsave
0.000 setgray
fill
grestore
stroke
grestore
} bind def
62.2 167.421 o
grestore
gsave
/o {
gsave
newpath
translate
0.6 setlinewidth
1 setlinejoin
0 setlinecap
-0 0 m
-2 0 l

gsave
0.000 setgray
fill
grestore
stroke
grestore
} bind def
62.2 172.357 o
grestore
gsave
/o {
gsave
newpath
translate
0.6 setlinewidth
1 setlinejoin
0 setlinecap
-0 0 m
-2 0 l

gsave
0.000 setgray
fill
grestore
stroke
grestore
} bind def
62.2 176.186 o
grestore
gsave
/o {
gsave
newpath
translate
0.6 setlinewidth
1 setlinejoin
0 setlinecap
-0 0 m
-2 0 l

gsave
0.000 setgray
fill
grestore
stroke
grestore
} bind def
62.2 179.314 o
grestore
gsave
/o {
gsave
newpath
translate
0.6 setlinewidth
1 setlinejoin
0 setlinecap
-0 0 m
-2 0 l

gsave
0.000 setgray
fill
grestore
stroke
grestore
} bind def
62.2 181.959 o
grestore
gsave
/o {
gsave
newpath
translate
0.6 setlinewidth
1 setlinejoin
0 setlinecap
-0 0 m
-2 0 l

gsave
0.000 setgray
fill
grestore
stroke
grestore
} bind def
62.2 184.251 o
grestore
gsave
/o {
gsave
newpath
translate
0.6 setlinewidth
1 setlinejoin
0 setlinecap
-0 0 m
-2 0 l

gsave
0.000 setgray
fill
grestore
stroke
grestore
} bind def
62.2 186.272 o
grestore
gsave
/o {
gsave
newpath
translate
0.6 setlinewidth
1 setlinejoin
0 setlinecap
-0 0 m
-2 0 l

gsave
0.000 setgray
fill
grestore
stroke
grestore
} bind def
62.2 199.974 o
grestore
gsave
/o {
gsave
newpath
translate
0.6 setlinewidth
1 setlinejoin
0 setlinecap
-0 0 m
-2 0 l

gsave
0.000 setgray
fill
grestore
stroke
grestore
} bind def
62.2 206.931 o
grestore
gsave
/o {
gsave
newpath
translate
0.6 setlinewidth
1 setlinejoin
0 setlinecap
-0 0 m
-2 0 l

gsave
0.000 setgray
fill
grestore
stroke
grestore
} bind def
62.2 211.867 o
grestore
gsave
/o {
gsave
newpath
translate
0.6 setlinewidth
1 setlinejoin
0 setlinecap
-0 0 m
-2 0 l

gsave
0.000 setgray
fill
grestore
stroke
grestore
} bind def
62.2 215.696 o
grestore
gsave
/o {
gsave
newpath
translate
0.6 setlinewidth
1 setlinejoin
0 setlinecap
-0 0 m
-2 0 l

gsave
0.000 setgray
fill
grestore
stroke
grestore
} bind def
62.2 218.825 o
grestore
gsave
/o {
gsave
newpath
translate
0.6 setlinewidth
1 setlinejoin
0 setlinecap
-0 0 m
-2 0 l

gsave
0.000 setgray
fill
grestore
stroke
grestore
} bind def
62.2 221.47 o
grestore
gsave
/o {
gsave
newpath
translate
0.6 setlinewidth
1 setlinejoin
0 setlinecap
-0 0 m
-2 0 l

gsave
0.000 setgray
fill
grestore
stroke
grestore
} bind def
62.2 223.761 o
grestore
gsave
/o {
gsave
newpath
translate
0.6 setlinewidth
1 setlinejoin
0 setlinecap
-0 0 m
-2 0 l

gsave
0.000 setgray
fill
grestore
stroke
grestore
} bind def
62.2 225.782 o
grestore
gsave
/o {
gsave
newpath
translate
0.6 setlinewidth
1 setlinejoin
0 setlinecap
-0 0 m
-2 0 l

gsave
0.000 setgray
fill
grestore
stroke
grestore
} bind def
62.2 239.484 o
grestore
gsave
/o {
gsave
newpath
translate
0.6 setlinewidth
1 setlinejoin
0 setlinecap
-0 0 m
-2 0 l

gsave
0.000 setgray
fill
grestore
stroke
grestore
} bind def
62.2 246.442 o
grestore
gsave
/o {
gsave
newpath
translate
0.6 setlinewidth
1 setlinejoin
0 setlinecap
-0 0 m
-2 0 l

gsave
0.000 setgray
fill
grestore
stroke
grestore
} bind def
62.2 251.378 o
grestore
gsave
/o {
gsave
newpath
translate
0.6 setlinewidth
1 setlinejoin
0 setlinecap
-0 0 m
-2 0 l

gsave
0.000 setgray
fill
grestore
stroke
grestore
} bind def
62.2 255.207 o
grestore
gsave
/o {
gsave
newpath
translate
0.6 setlinewidth
1 setlinejoin
0 setlinecap
-0 0 m
-2 0 l

gsave
0.000 setgray
fill
grestore
stroke
grestore
} bind def
62.2 258.335 o
grestore
gsave
/o {
gsave
newpath
translate
0.6 setlinewidth
1 setlinejoin
0 setlinecap
-0 0 m
-2 0 l

gsave
0.000 setgray
fill
grestore
stroke
grestore
} bind def
62.2 260.98 o
grestore
gsave
/o {
gsave
newpath
translate
0.6 setlinewidth
1 setlinejoin
0 setlinecap
-0 0 m
-2 0 l

gsave
0.000 setgray
fill
grestore
stroke
grestore
} bind def
62.2 263.272 o
grestore
gsave
/o {
gsave
newpath
translate
0.6 setlinewidth
1 setlinejoin
0 setlinecap
-0 0 m
-2 0 l

gsave
0.000 setgray
fill
grestore
stroke
grestore
} bind def
62.2 265.293 o
grestore
gsave
/o {
gsave
newpath
translate
0.6 setlinewidth
1 setlinejoin
0 setlinecap
-0 0 m
-2 0 l

gsave
0.000 setgray
fill
grestore
stroke
grestore
} bind def
62.2 278.995 o
grestore
gsave
/o {
gsave
newpath
translate
0.6 setlinewidth
1 setlinejoin
0 setlinecap
-0 0 m
-2 0 l

gsave
0.000 setgray
fill
grestore
stroke
grestore
} bind def
62.2 285.952 o
grestore
gsave
/o {
gsave
newpath
translate
0.6 setlinewidth
1 setlinejoin
0 setlinecap
-0 0 m
-2 0 l

gsave
0.000 setgray
fill
grestore
stroke
grestore
} bind def
62.2 290.888 o
grestore
gsave
/o {
gsave
newpath
translate
0.6 setlinewidth
1 setlinejoin
0 setlinecap
-0 0 m
-2 0 l

gsave
0.000 setgray
fill
grestore
stroke
grestore
} bind def
62.2 294.717 o
grestore
gsave
/o {
gsave
newpath
translate
0.6 setlinewidth
1 setlinejoin
0 setlinecap
-0 0 m
-2 0 l

gsave
0.000 setgray
fill
grestore
stroke
grestore
} bind def
62.2 297.846 o
grestore
gsave
/o {
gsave
newpath
translate
0.6 setlinewidth
1 setlinejoin
0 setlinecap
-0 0 m
-2 0 l

gsave
0.000 setgray
fill
grestore
stroke
grestore
} bind def
62.2 300.491 o
grestore
gsave
/o {
gsave
newpath
translate
0.6 setlinewidth
1 setlinejoin
0 setlinecap
-0 0 m
-2 0 l

gsave
0.000 setgray
fill
grestore
stroke
grestore
} bind def
62.2 302.782 o
grestore
gsave
/o {
gsave
newpath
translate
0.6 setlinewidth
1 setlinejoin
0 setlinecap
-0 0 m
-2 0 l

gsave
0.000 setgray
fill
grestore
stroke
grestore
} bind def
62.2 304.803 o
grestore
gsave
18.200000 159.974750 translate
90.000000 rotate
/DejaVuSans-Oblique findfont
14.0 scalefont
setfont
0.000000 0.281250 moveto
/beta glyphshow
/DejaVuSans findfont
9.799999999999999 scalefont
setfont
8.934570 -2.015625 moveto
/M glyphshow
17.389941 -2.015625 moveto
/comma glyphshow
22.414355 -2.015625 moveto
/i glyphshow
25.137109 -2.015625 moveto
/j glyphshow

grestore
1.000 setlinewidth
0.750 0.000 0.750 setrgbcolor
gsave
357.1 266.1 62.2 41.42 clipbox
/o {
gsave
newpath
translate
1.0 setlinewidth
1 setlinejoin
0 setlinecap
0 -1.5 m
0.397805 -1.5 0.77937 -1.341951 1.06066 -1.06066 c
1.341951 -0.77937 1.5 -0.397805 1.5 0 c
1.5 0.397805 1.341951 0.77937 1.06066 1.06066 c
0.77937 1.341951 0.397805 1.5 0 1.5 c
-0.397805 1.5 -0.77937 1.341951 -1.06066 1.06066 c
-1.341951 0.77937 -1.5 0.397805 -1.5 0 c
-1.5 -0.397805 -1.341951 -0.77937 -1.06066 -1.06066 c
-0.77937 -1.341951 -0.397805 -1.5 0 -1.5 c
cl

gsave
0.750 0.000 0.750 setrgbcolor
fill
grestore
stroke
grestore
} bind def
78.4327 242.628 o
83.9353 242.597 o
89.438 242.221 o
94.9406 241.635 o
100.443 240.922 o
105.946 240.195 o
111.448 239.535 o
116.951 239.002 o
122.454 238.642 o
127.956 238.457 o
133.459 238.438 o
138.962 238.546 o
144.464 238.746 o
149.967 238.988 o
155.469 239.233 o
160.972 239.444 o
166.475 239.597 o
171.977 239.68 o
177.48 239.681 o
182.982 239.617 o
188.485 239.501 o
193.988 239.348 o
199.49 239.173 o
204.993 239.005 o
210.496 238.828 o
215.998 238.632 o
221.501 238.436 o
227.003 238.289 o
232.506 238.028 o
238.009 237.321 o
243.511 236.161 o
249.014 234.39 o
254.517 232.287 o
260.019 230.743 o
265.522 231.265 o
271.024 233.476 o
276.527 235.159 o
282.03 235.966 o
287.532 235.42 o
293.035 232.913 o
298.538 231.303 o
304.04 232.955 o
309.543 234.895 o
315.045 232.805 o
320.548 230.779 o
326.051 227.972 o
331.553 226.121 o
337.056 222.628 o
342.558 219.123 o
348.061 222.619 o
353.564 242.211 o
359.066 237.547 o
364.569 230.753 o
370.072 225.105 o
375.574 220.394 o
381.077 218.205 o
386.579 218.065 o
392.082 214.354 o
397.585 211.203 o
403.087 213.385 o
grestore
gsave
357.1 266.1 62.2 41.42 clipbox
/o {
gsave
newpath
translate
1.0 setlinewidth
1 setlinejoin
0 setlinecap
-3 -3 m
3 3 l
-3 3 m
3 -3 l

gsave
0.750 0.000 0.750 setrgbcolor
fill
grestore
stroke
grestore
} bind def
grestore
0.000 0.750 0.750 setrgbcolor
gsave
357.1 266.1 62.2 41.42 clipbox
/o {
gsave
newpath
translate
1.0 setlinewidth
1 setlinejoin
0 setlinecap
0 -1.5 m
0.397805 -1.5 0.77937 -1.341951 1.06066 -1.06066 c
1.341951 -0.77937 1.5 -0.397805 1.5 0 c
1.5 0.397805 1.341951 0.77937 1.06066 1.06066 c
0.77937 1.341951 0.397805 1.5 0 1.5 c
-0.397805 1.5 -0.77937 1.341951 -1.06066 1.06066 c
-1.341951 0.77937 -1.5 0.397805 -1.5 0 c
-1.5 -0.397805 -1.341951 -0.77937 -1.06066 -1.06066 c
-0.77937 -1.341951 -0.397805 -1.5 0 -1.5 c
cl

gsave
0.000 0.750 0.750 setrgbcolor
fill
grestore
stroke
grestore
} bind def
78.4327 242.818 o
83.9353 242.488 o
89.438 241.977 o
94.9406 241.379 o
100.443 240.786 o
105.946 240.26 o
111.448 239.851 o
116.951 239.586 o
122.454 239.459 o
127.956 239.464 o
133.459 239.564 o
138.962 239.732 o
144.464 239.928 o
149.967 240.127 o
155.469 240.298 o
160.972 240.426 o
166.475 240.503 o
171.977 240.529 o
177.48 240.508 o
182.982 240.456 o
188.485 240.388 o
193.988 240.316 o
199.49 240.252 o
204.993 240.197 o
210.496 240.122 o
215.998 240.021 o
221.501 239.862 o
227.003 239.619 o
232.506 239.232 o
238.009 238.59 o
243.511 237.642 o
249.014 236.365 o
254.517 235.133 o
260.019 234.266 o
265.522 234.611 o
271.024 236.796 o
276.527 239.461 o
282.03 240.843 o
287.532 239.634 o
293.035 237.284 o
298.538 236.559 o
304.04 238.202 o
309.543 239.534 o
315.045 238.561 o
320.548 237.055 o
326.051 236.43 o
331.553 236.196 o
337.056 235.09 o
342.558 228.4 o
348.061 184.26 o
348.088 -1 o
364.538 -1 o
364.569 210.249 o
370.072 220.654 o
375.574 211.109 o
375.605 -1 o
392.051 -1 o
392.082 209.041 o
397.585 230.761 o
403.087 234.096 o
grestore
gsave
357.1 266.1 62.2 41.42 clipbox
/o {
gsave
newpath
translate
1.0 setlinewidth
1 setlinejoin
0 setlinecap
-3 -3 m
3 3 l
-3 3 m
3 -3 l

gsave
0.000 0.750 0.750 setrgbcolor
fill
grestore
stroke
grestore
} bind def
353.531 -1 o
353.564 221.765 o
359.066 182.971 o
359.093 -1 o
381.048 -1 o
381.077 193.631 o
386.579 217.857 o
386.611 -1 o
grestore
0.750 0.750 0.000 setrgbcolor
gsave
357.1 266.1 62.2 41.42 clipbox
/o {
gsave
newpath
translate
1.0 setlinewidth
1 setlinejoin
0 setlinecap
0 -1.5 m
0.397805 -1.5 0.77937 -1.341951 1.06066 -1.06066 c
1.341951 -0.77937 1.5 -0.397805 1.5 0 c
1.5 0.397805 1.341951 0.77937 1.06066 1.06066 c
0.77937 1.341951 0.397805 1.5 0 1.5 c
-0.397805 1.5 -0.77937 1.341951 -1.06066 1.06066 c
-1.341951 0.77937 -1.5 0.397805 -1.5 0 c
-1.5 -0.397805 -1.341951 -0.77937 -1.06066 -1.06066 c
-0.77937 -1.341951 -0.397805 -1.5 0 -1.5 c
cl

gsave
0.750 0.750 0.000 setrgbcolor
fill
grestore
stroke
grestore
} bind def
215.986 -1 o
215.998 83.2712 o
221.501 68.94 o
227.003 89.1047 o
232.506 99.2645 o
232.521 -1 o
254.504 -1 o
254.517 85.6253 o
260.019 60.0908 o
265.522 115.466 o
271.024 104.075 o
276.527 99.2336 o
282.03 126.015 o
282.048 -1 o
298.522 -1 o
298.538 102.729 o
298.553 -1 o
309.525 -1 o
309.543 121.313 o
309.561 -1 o
320.526 -1 o
320.548 147.845 o
326.051 147.282 o
331.553 144.082 o
337.056 163.238 o
337.08 -1 o
348.041 -1 o
348.061 136.643 o
353.564 188.169 o
359.066 196.53 o
364.569 203.131 o
370.072 200.29 o
375.574 171.819 o
375.599 -1 o
386.554 -1 o
386.579 174.291 o
392.082 184.433 o
397.585 180.726 o
403.087 169.069 o
grestore
gsave
357.1 266.1 62.2 41.42 clipbox
/o {
gsave
newpath
translate
1.0 setlinewidth
1 setlinejoin
0 setlinecap
-3 -3 m
3 3 l
-3 3 m
3 -3 l

gsave
0.750 0.750 0.000 setrgbcolor
fill
grestore
stroke
grestore
} bind def
78.4327 53.5147 o
83.9353 71.2102 o
89.438 72.7105 o
94.9406 78.5694 o
100.443 79.3212 o
105.946 79.5354 o
111.448 79.2872 o
116.951 81.3443 o
122.454 82.1698 o
127.956 81.921 o
133.459 85.8617 o
138.962 85.5581 o
144.464 88.9395 o
149.967 89.84 o
155.469 91.4409 o
160.972 90.7632 o
166.475 92.1058 o
171.977 94.6424 o
177.48 93.3433 o
182.982 91.2334 o
188.485 88.6079 o
193.988 85.3039 o
199.49 89.0243 o
204.993 96.1623 o
210.496 92.0765 o
210.509 -1 o
237.998 -1 o
238.009 72.8157 o
243.511 86.0471 o
249.014 77.3669 o
249.025 -1 o
287.519 -1 o
287.532 92.9777 o
293.035 120.502 o
293.053 -1 o
304.021 -1 o
304.04 132.512 o
304.06 -1 o
315.028 -1 o
315.045 117.647 o
315.063 -1 o
342.54 -1 o
342.558 127.061 o
342.577 -1 o
381.05 -1 o
381.077 181.576 o
381.103 -1 o
grestore
0.000 setgray
gsave
357.1 266.1 62.2 41.42 clipbox
/o {
gsave
newpath
translate
1.0 setlinewidth
1 setlinejoin
0 setlinecap
0 -1.5 m
0.397805 -1.5 0.77937 -1.341951 1.06066 -1.06066 c
1.341951 -0.77937 1.5 -0.397805 1.5 0 c
1.5 0.397805 1.341951 0.77937 1.06066 1.06066 c
0.77937 1.341951 0.397805 1.5 0 1.5 c
-0.397805 1.5 -0.77937 1.341951 -1.06066 1.06066 c
-1.341951 0.77937 -1.5 0.397805 -1.5 0 c
-1.5 -0.397805 -1.341951 -0.77937 -1.06066 -1.06066 c
-0.77937 -1.341951 -0.397805 -1.5 0 -1.5 c
cl

gsave
0.000 setgray
fill
grestore
stroke
grestore
} bind def
78.4327 295.435 o
83.9353 291.592 o
89.438 287.738 o
94.9406 283.918 o
100.443 280.175 o
105.946 276.548 o
111.448 273.073 o
116.951 269.776 o
122.454 266.681 o
127.956 263.8 o
133.459 261.142 o
138.962 258.704 o
144.464 256.482 o
149.967 254.466 o
155.469 252.645 o
160.972 251.011 o
166.475 249.556 o
171.977 248.273 o
177.48 247.156 o
182.982 246.202 o
188.485 245.402 o
193.988 244.746 o
199.49 244.219 o
204.993 243.807 o
210.496 243.48 o
215.998 243.222 o
221.501 243.04 o
227.003 242.933 o
232.506 242.901 o
238.009 243.068 o
243.511 243.615 o
249.014 244.53 o
254.517 245.879 o
260.019 247.58 o
265.522 249.557 o
271.024 250.837 o
276.527 250.935 o
282.03 250.724 o
287.532 251.201 o
293.035 251.13 o
298.538 251.99 o
304.04 253.451 o
309.543 253.881 o
315.045 253.635 o
320.548 254.558 o
326.051 256.08 o
331.553 257.464 o
337.056 256.819 o
342.558 254.699 o
348.061 254.316 o
353.564 259.301 o
359.066 265.995 o
364.569 273.928 o
370.072 280.439 o
375.574 281.853 o
381.077 281.372 o
386.579 281.601 o
392.082 282.513 o
397.585 283.448 o
403.087 283.813 o
grestore
gsave
357.1 266.1 62.2 41.42 clipbox
/o {
gsave
newpath
translate
1.0 setlinewidth
1 setlinejoin
0 setlinecap
-3 -3 m
3 3 l
-3 3 m
3 -3 l

gsave
0.000 setgray
fill
grestore
stroke
grestore
} bind def
grestore
1.000 0.000 0.000 setrgbcolor
gsave
357.1 266.1 62.2 41.42 clipbox
/o {
gsave
newpath
translate
1.0 setlinewidth
1 setlinejoin
0 setlinecap
0 -1.5 m
0.397805 -1.5 0.77937 -1.341951 1.06066 -1.06066 c
1.341951 -0.77937 1.5 -0.397805 1.5 0 c
1.5 0.397805 1.341951 0.77937 1.06066 1.06066 c
0.77937 1.341951 0.397805 1.5 0 1.5 c
-0.397805 1.5 -0.77937 1.341951 -1.06066 1.06066 c
-1.341951 0.77937 -1.5 0.397805 -1.5 0 c
-1.5 -0.397805 -1.341951 -0.77937 -1.06066 -1.06066 c
-0.77937 -1.341951 -0.397805 -1.5 0 -1.5 c
cl

gsave
1.000 0.000 0.000 setrgbcolor
fill
grestore
stroke
grestore
} bind def
243.499 -1 o
243.511 82.6348 o
249.014 99.307 o
254.517 97.7383 o
260.019 103.669 o
265.522 115.654 o
265.539 -1 o
282.016 -1 o
282.03 95.7724 o
287.532 127.601 o
287.551 -1 o
320.53 -1 o
320.548 125.013 o
326.051 119.674 o
331.553 126.885 o
337.056 101.302 o
337.071 -1 o
348.039 -1 o
348.061 147.314 o
353.564 164.458 o
359.066 202.349 o
364.569 212.144 o
370.072 213.629 o
375.574 220.563 o
381.077 222.147 o
386.579 223.069 o
392.082 224.366 o
397.585 226.02 o
403.087 227.04 o
grestore
gsave
357.1 266.1 62.2 41.42 clipbox
/o {
gsave
newpath
translate
1.0 setlinewidth
1 setlinejoin
0 setlinecap
-3 -3 m
3 3 l
-3 3 m
3 -3 l

gsave
1.000 0.000 0.000 setrgbcolor
fill
grestore
stroke
grestore
} bind def
78.4327 54.0904 o
83.9353 68.7051 o
89.438 73.1002 o
94.9406 81.6107 o
100.443 87.8367 o
105.946 83.8692 o
111.448 72.3877 o
116.951 84.7645 o
122.454 71.3269 o
127.956 71.7816 o
133.459 84.0372 o
138.962 92.4466 o
144.464 96.3302 o
149.967 99.1048 o
155.469 97.7703 o
160.972 96.991 o
166.475 97.1134 o
171.977 95.4291 o
177.48 90.7744 o
182.982 95.7236 o
188.485 99.7353 o
193.988 97.3022 o
199.49 90.6465 o
204.993 103.507 o
210.496 105.166 o
215.998 102.067 o
221.501 94.4196 o
227.003 98.163 o
232.506 98.3785 o
238.009 102.296 o
238.024 -1 o
271.014 -1 o
271.024 73.6251 o
276.527 71.6675 o
276.538 -1 o
293.016 -1 o
293.035 127.949 o
298.538 69.4656 o
304.04 129.721 o
309.543 114.322 o
315.045 141.96 o
315.066 -1 o
342.534 -1 o
342.558 164.125 o
342.583 -1 o
grestore
0.000 0.500 0.000 setrgbcolor
gsave
357.1 266.1 62.2 41.42 clipbox
/o {
gsave
newpath
translate
1.0 setlinewidth
1 setlinejoin
0 setlinecap
0 -1.5 m
0.397805 -1.5 0.77937 -1.341951 1.06066 -1.06066 c
1.341951 -0.77937 1.5 -0.397805 1.5 0 c
1.5 0.397805 1.341951 0.77937 1.06066 1.06066 c
0.77937 1.341951 0.397805 1.5 0 1.5 c
-0.397805 1.5 -0.77937 1.341951 -1.06066 1.06066 c
-1.341951 0.77937 -1.5 0.397805 -1.5 0 c
-1.5 -0.397805 -1.341951 -0.77937 -1.06066 -1.06066 c
-0.77937 -1.341951 -0.397805 -1.5 0 -1.5 c
cl

gsave
0.000 0.500 0.000 setrgbcolor
fill
grestore
stroke
grestore
} bind def
78.4327 134.853 o
83.9353 128.563 o
89.438 141.469 o
94.9406 135.398 o
100.443 134.39 o
105.946 131.067 o
111.448 125.091 o
116.951 126.879 o
122.454 121.913 o
127.956 128.685 o
133.459 125.67 o
138.962 129.595 o
144.464 127.472 o
149.967 130.888 o
155.469 130.462 o
160.972 132.084 o
166.475 132.737 o
171.977 133.426 o
177.48 134.684 o
182.982 134.602 o
188.485 135.933 o
193.988 137.62 o
199.49 140.27 o
204.993 143.768 o
210.496 146.227 o
215.998 148.322 o
221.501 149.788 o
227.003 153.284 o
232.506 154.968 o
238.009 153.561 o
243.511 153.233 o
249.014 152.024 o
254.517 150.672 o
260.019 151.463 o
265.522 157.29 o
271.024 161.355 o
276.527 162.849 o
282.03 161.398 o
287.532 156.89 o
293.035 158.738 o
298.538 157.991 o
304.04 162.122 o
309.543 167.168 o
315.045 170.077 o
320.548 167.725 o
326.051 160.069 o
331.553 162.245 o
337.056 181.952 o
342.558 181.086 o
348.061 192.166 o
353.564 219.308 o
359.066 228.961 o
364.569 229.292 o
370.072 229.47 o
375.574 223.5 o
381.077 219.309 o
386.579 217.243 o
392.082 213.839 o
397.585 211.217 o
403.087 210.23 o
grestore
gsave
357.1 266.1 62.2 41.42 clipbox
/o {
gsave
newpath
translate
1.0 setlinewidth
1 setlinejoin
0 setlinecap
-3 -3 m
3 3 l
-3 3 m
3 -3 l

gsave
0.000 0.500 0.000 setrgbcolor
fill
grestore
stroke
grestore
} bind def
grestore
0.800 setlinewidth
0 setlinejoin
2 setlinecap
0.000 setgray
gsave
62.2 41.41875 m
62.2 307.53075 l
stroke
grestore
gsave
419.32 41.41875 m
419.32 307.53075 l
stroke
grestore
gsave
62.2 41.41875 m
419.32 41.41875 l
stroke
grestore
gsave
62.2 307.53075 m
419.32 307.53075 l
stroke
grestore
/DejaVuSans findfont
12.000 scalefont
setfont
gsave
159.783438 313.530750 translate
0.000000 rotate
0.000000 0 m /R glyphshow
8.337891 0 m /E glyphshow
15.919922 0 m /S glyphshow
23.537109 0 m /O glyphshow
32.982422 0 m /L glyphshow
39.042969 0 m /U glyphshow
47.826172 0 m /T glyphshow
55.156250 0 m /I glyphshow
58.695312 0 m /O glyphshow
68.140625 0 m /N glyphshow
77.117188 0 m /space glyphshow
80.931641 0 m /colon glyphshow
84.974609 0 m /space glyphshow
88.789062 0 m /one glyphshow
96.423828 0 m /zero glyphshow
104.058594 0 m /zero glyphshow
111.693359 0 m /underscore glyphshow
117.693359 0 m /one glyphshow
125.328125 0 m /zero glyphshow
132.962891 0 m /zero glyphshow
140.597656 0 m /underscore glyphshow
146.597656 0 m /three glyphshow
154.232422 0 m /four glyphshow
grestore
1.000 setlinewidth
0 setlinecap
0.800 setgray
gsave
267.62 46.91875 m
411.62 46.91875 l
413.086667 46.91875 413.82 47.652083 413.82 49.11875 c
413.82 102.51875 l
413.82 103.985417 413.086667 104.71875 411.62 104.71875 c
267.62 104.71875 l
266.153333 104.71875 265.42 103.985417 265.42 102.51875 c
265.42 49.11875 l
265.42 47.652083 266.153333 46.91875 267.62 46.91875 c
cl
gsave
1.000 setgray
fill
grestore
stroke
grestore
1 setlinejoin
0.750 0.000 0.750 setrgbcolor
gsave
/o {
gsave
newpath
translate
1.0 setlinewidth
1 setlinejoin
0 setlinecap
0 -1.5 m
0.397805 -1.5 0.77937 -1.341951 1.06066 -1.06066 c
1.341951 -0.77937 1.5 -0.397805 1.5 0 c
1.5 0.397805 1.341951 0.77937 1.06066 1.06066 c
0.77937 1.341951 0.397805 1.5 0 1.5 c
-0.397805 1.5 -0.77937 1.341951 -1.06066 1.06066 c
-1.341951 0.77937 -1.5 0.397805 -1.5 0 c
-1.5 -0.397805 -1.341951 -0.77937 -1.06066 -1.06066 c
-0.77937 -1.341951 -0.397805 -1.5 0 -1.5 c
cl

gsave
0.750 0.000 0.750 setrgbcolor
fill
grestore
stroke
grestore
} bind def
280.82 95.1687 o
grestore
0.000 setgray
gsave
300.620000 91.318750 translate
0.000000 rotate
/DejaVuSans-Oblique findfont
11.0 scalefont
setfont
0.000000 0.578125 moveto
/beta glyphshow
/DejaVuSans findfont
7.699999999999999 scalefont
setfont
7.020020 -1.226562 moveto
/M glyphshow
13.663525 -1.226562 moveto
/comma glyphshow
17.611279 -1.226562 moveto
/r glyphshow
20.777002 -1.226562 moveto
/r glyphshow

grestore
0.000 0.750 0.750 setrgbcolor
gsave
/o {
gsave
newpath
translate
1.0 setlinewidth
1 setlinejoin
0 setlinecap
0 -1.5 m
0.397805 -1.5 0.77937 -1.341951 1.06066 -1.06066 c
1.341951 -0.77937 1.5 -0.397805 1.5 0 c
1.5 0.397805 1.341951 0.77937 1.06066 1.06066 c
0.77937 1.341951 0.397805 1.5 0 1.5 c
-0.397805 1.5 -0.77937 1.341951 -1.06066 1.06066 c
-1.341951 0.77937 -1.5 0.397805 -1.5 0 c
-1.5 -0.397805 -1.341951 -0.77937 -1.06066 -1.06066 c
-0.77937 -1.341951 -0.397805 -1.5 0 -1.5 c
cl

gsave
0.000 0.750 0.750 setrgbcolor
fill
grestore
stroke
grestore
} bind def
280.82 77.6687 o
grestore
0.000 setgray
gsave
300.620000 73.818750 translate
0.000000 rotate
/DejaVuSans-Oblique findfont
11.0 scalefont
setfont
0.000000 0.578125 moveto
/beta glyphshow
/DejaVuSans findfont
7.699999999999999 scalefont
setfont
7.020020 -1.226562 moveto
/M glyphshow
13.663525 -1.226562 moveto
/comma glyphshow
17.611279 -1.226562 moveto
/r glyphshow
20.777002 -1.226562 moveto
/phi1 glyphshow

grestore
0.750 0.750 0.000 setrgbcolor
gsave
/o {
gsave
newpath
translate
1.0 setlinewidth
1 setlinejoin
0 setlinecap
0 -1.5 m
0.397805 -1.5 0.77937 -1.341951 1.06066 -1.06066 c
1.341951 -0.77937 1.5 -0.397805 1.5 0 c
1.5 0.397805 1.341951 0.77937 1.06066 1.06066 c
0.77937 1.341951 0.397805 1.5 0 1.5 c
-0.397805 1.5 -0.77937 1.341951 -1.06066 1.06066 c
-1.341951 0.77937 -1.5 0.397805 -1.5 0 c
-1.5 -0.397805 -1.341951 -0.77937 -1.06066 -1.06066 c
-0.77937 -1.341951 -0.397805 -1.5 0 -1.5 c
cl

gsave
0.750 0.750 0.000 setrgbcolor
fill
grestore
stroke
grestore
} bind def
280.82 59.1687 o
grestore
0.000 setgray
gsave
300.620000 55.318750 translate
0.000000 rotate
/DejaVuSans-Oblique findfont
11.0 scalefont
setfont
0.000000 0.578125 moveto
/beta glyphshow
/DejaVuSans findfont
7.699999999999999 scalefont
setfont
7.020020 -1.226562 moveto
/M glyphshow
13.663525 -1.226562 moveto
/comma glyphshow
17.611279 -1.226562 moveto
/r glyphshow
20.777002 -1.226562 moveto
/z glyphshow

grestore
gsave
/o {
gsave
newpath
translate
1.0 setlinewidth
1 setlinejoin
0 setlinecap
0 -1.5 m
0.397805 -1.5 0.77937 -1.341951 1.06066 -1.06066 c
1.341951 -0.77937 1.5 -0.397805 1.5 0 c
1.5 0.397805 1.341951 0.77937 1.06066 1.06066 c
0.77937 1.341951 0.397805 1.5 0 1.5 c
-0.397805 1.5 -0.77937 1.341951 -1.06066 1.06066 c
-1.341951 0.77937 -1.5 0.397805 -1.5 0 c
-1.5 -0.397805 -1.341951 -0.77937 -1.06066 -1.06066 c
-0.77937 -1.341951 -0.397805 -1.5 0 -1.5 c
cl

gsave
0.000 setgray
fill
grestore
stroke
grestore
} bind def
360.62 95.1687 o
grestore
gsave
380.420000 91.318750 translate
0.000000 rotate
/DejaVuSans-Oblique findfont
11.0 scalefont
setfont
0.000000 0.578125 moveto
/beta glyphshow
/DejaVuSans findfont
7.699999999999999 scalefont
setfont
7.020020 -1.226562 moveto
/M glyphshow
13.663525 -1.226562 moveto
/comma glyphshow
17.611279 -1.226562 moveto
/phi1 glyphshow
22.690723 -1.226562 moveto
/phi1 glyphshow

grestore
1.000 0.000 0.000 setrgbcolor
gsave
/o {
gsave
newpath
translate
1.0 setlinewidth
1 setlinejoin
0 setlinecap
0 -1.5 m
0.397805 -1.5 0.77937 -1.341951 1.06066 -1.06066 c
1.341951 -0.77937 1.5 -0.397805 1.5 0 c
1.5 0.397805 1.341951 0.77937 1.06066 1.06066 c
0.77937 1.341951 0.397805 1.5 0 1.5 c
-0.397805 1.5 -0.77937 1.341951 -1.06066 1.06066 c
-1.341951 0.77937 -1.5 0.397805 -1.5 0 c
-1.5 -0.397805 -1.341951 -0.77937 -1.06066 -1.06066 c
-0.77937 -1.341951 -0.397805 -1.5 0 -1.5 c
cl

gsave
1.000 0.000 0.000 setrgbcolor
fill
grestore
stroke
grestore
} bind def
360.62 76.6687 o
grestore
0.000 setgray
gsave
380.420000 72.818750 translate
0.000000 rotate
/DejaVuSans-Oblique findfont
11.0 scalefont
setfont
0.000000 0.578125 moveto
/beta glyphshow
/DejaVuSans findfont
7.699999999999999 scalefont
setfont
7.020020 -1.226562 moveto
/M glyphshow
13.663525 -1.226562 moveto
/comma glyphshow
17.611279 -1.226562 moveto
/phi1 glyphshow
22.690723 -1.226562 moveto
/z glyphshow

grestore
0.000 0.500 0.000 setrgbcolor
gsave
/o {
gsave
newpath
translate
1.0 setlinewidth
1 setlinejoin
0 setlinecap
0 -1.5 m
0.397805 -1.5 0.77937 -1.341951 1.06066 -1.06066 c
1.341951 -0.77937 1.5 -0.397805 1.5 0 c
1.5 0.397805 1.341951 0.77937 1.06066 1.06066 c
0.77937 1.341951 0.397805 1.5 0 1.5 c
-0.397805 1.5 -0.77937 1.341951 -1.06066 1.06066 c
-1.341951 0.77937 -1.5 0.397805 -1.5 0 c
-1.5 -0.397805 -1.341951 -0.77937 -1.06066 -1.06066 c
-0.77937 -1.341951 -0.397805 -1.5 0 -1.5 c
cl

gsave
0.000 0.500 0.000 setrgbcolor
fill
grestore
stroke
grestore
} bind def
360.62 58.1687 o
grestore
0.000 setgray
gsave
380.420000 54.318750 translate
0.000000 rotate
/DejaVuSans-Oblique findfont
11.0 scalefont
setfont
0.000000 0.578125 moveto
/beta glyphshow
/DejaVuSans findfont
7.699999999999999 scalefont
setfont
7.020020 -1.226562 moveto
/M glyphshow
13.663525 -1.226562 moveto
/comma glyphshow
17.611279 -1.226562 moveto
/z glyphshow
21.653027 -1.226562 moveto
/z glyphshow

grestore

end
showpage
