%!PS-Adobe-3.0 EPSF-3.0
%%Title: /scr/miquel/Projects/sub-grid/pablo-model/constant-case/60_240_60/plots/alphaR.eps
%%Creator: matplotlib version 3.3.3, http://matplotlib.org/
%%CreationDate: Tue Feb  2 15:38:52 2021
%%Orientation: portrait
%%BoundingBox: 93.96656250000001 231.18150000000006 518.0334375 560.8185
%%EndComments
%%BeginProlog
/mpldict 9 dict def
mpldict begin
/m { moveto } bind def
/l { lineto } bind def
/r { rlineto } bind def
/c { curveto } bind def
/cl { closepath } bind def
/box {
      m
      1 index 0 r
      0 exch r
      neg 0 r
      cl
    } bind def
/clipbox {
      box
      clip
      newpath
    } bind def
%!PS-Adobe-3.0 Resource-Font
%%Title: DejaVu Sans
%%Copyright: Copyright (c) 2003 by Bitstream, Inc. All Rights Reserved. Copyright (c) 2006 by Tavmjong Bah. All Rights Reserved. DejaVu changes are in public domain 
%%Creator: Converted from TrueType to type 3 by PPR
25 dict begin
/_d{bind def}bind def
/_m{moveto}_d
/_l{lineto}_d
/_cl{closepath eofill}_d
/_c{curveto}_d
/_sc{7 -1 roll{setcachedevice}{pop pop pop pop pop pop}ifelse}_d
/_e{exec}_d
/FontName /DejaVuSans def
/PaintType 0 def
/FontMatrix[.001 0 0 .001 0 0]def
/FontBBox[-1021 -463 1793 1232]def
/FontType 3 def
/Encoding [ /space /comma /zero /one /two /three /four /five /six /seven /nine /colon /E /I /L /N /O /R /S /T /U /bracketleft /bracketright /underscore /e /i /j /m /r /s /z /phi1 /minus ] def
/FontInfo 10 dict dup begin
/FamilyName (DejaVu Sans) def
/FullName (DejaVu Sans) def
/Notice (Copyright (c) 2003 by Bitstream, Inc. All Rights Reserved. Copyright (c) 2006 by Tavmjong Bah. All Rights Reserved. DejaVu changes are in public domain ) def
/Weight (Book) def
/Version (Version 2.35) def
/ItalicAngle 0.0 def
/isFixedPitch false def
/UnderlinePosition -130 def
/UnderlineThickness 90 def
end readonly def
/CharStrings 34 dict dup begin
/.notdef 0 def
/space{318 0 0 0 0 0 _sc
}_d
/comma{318 0 77 -115 220 124 _sc
117 124 _m
220 124 _l
220 40 _l
140 -115 _l
77 -115 _l
117 40 _l
117 124 _l
_cl}_d
/zero{636 0 66 -13 570 742 _sc
318 664 _m
267 664 229 639 203 589 _c
177 539 165 464 165 364 _c
165 264 177 189 203 139 _c
229 89 267 64 318 64 _c
369 64 407 89 433 139 _c
458 189 471 264 471 364 _c
471 464 458 539 433 589 _c
407 639 369 664 318 664 _c
318 742 _m
399 742 461 709 505 645 _c
548 580 570 486 570 364 _c
570 241 548 147 505 83 _c
461 19 399 -13 318 -13 _c
236 -13 173 19 130 83 _c
87 147 66 241 66 364 _c
66 486 87 580 130 645 _c
173 709 236 742 318 742 _c
_cl}_d
/one{636 0 110 0 544 729 _sc
124 83 _m
285 83 _l
285 639 _l
110 604 _l
110 694 _l
284 729 _l
383 729 _l
383 83 _l
544 83 _l
544 0 _l
124 0 _l
124 83 _l
_cl}_d
/two{{636 0 73 0 536 742 _sc
192 83 _m
536 83 _l
536 0 _l
73 0 _l
73 83 _l
110 121 161 173 226 239 _c
290 304 331 346 348 365 _c
380 400 402 430 414 455 _c
426 479 433 504 433 528 _c
433 566 419 598 392 622 _c
365 646 330 659 286 659 _c
255 659 222 653 188 643 _c
154 632 117 616 78 594 _c
78 694 _l
118 710 155 722 189 730 _c
223 738 255 742 284 742 _c
}_e{359 742 419 723 464 685 _c
509 647 532 597 532 534 _c
532 504 526 475 515 449 _c
504 422 484 390 454 354 _c
446 344 420 317 376 272 _c
332 227 271 164 192 83 _c
_cl}_e}_d
/three{{636 0 76 -13 556 742 _sc
406 393 _m
453 383 490 362 516 330 _c
542 298 556 258 556 212 _c
556 140 531 84 482 45 _c
432 6 362 -13 271 -13 _c
240 -13 208 -10 176 -4 _c
144 1 110 10 76 22 _c
76 117 _l
103 101 133 89 166 81 _c
198 73 232 69 268 69 _c
330 69 377 81 409 105 _c
441 129 458 165 458 212 _c
458 254 443 288 413 312 _c
383 336 341 349 287 349 _c
}_e{202 349 _l
202 430 _l
291 430 _l
339 430 376 439 402 459 _c
428 478 441 506 441 543 _c
441 580 427 609 401 629 _c
374 649 336 659 287 659 _c
260 659 231 656 200 650 _c
169 644 135 635 98 623 _c
98 711 _l
135 721 170 729 203 734 _c
235 739 266 742 296 742 _c
370 742 429 725 473 691 _c
517 657 539 611 539 553 _c
539 513 527 479 504 451 _c
481 423 448 403 406 393 _c
_cl}_e}_d
/four{636 0 49 0 580 729 _sc
378 643 _m
129 254 _l
378 254 _l
378 643 _l
352 729 _m
476 729 _l
476 254 _l
580 254 _l
580 172 _l
476 172 _l
476 0 _l
378 0 _l
378 172 _l
49 172 _l
49 267 _l
352 729 _l
_cl}_d
/five{{636 0 77 -13 549 729 _sc
108 729 _m
495 729 _l
495 646 _l
198 646 _l
198 467 _l
212 472 227 476 241 478 _c
255 480 270 482 284 482 _c
365 482 429 459 477 415 _c
525 370 549 310 549 234 _c
549 155 524 94 475 51 _c
426 8 357 -13 269 -13 _c
238 -13 207 -10 175 -6 _c
143 -1 111 6 77 17 _c
77 116 _l
106 100 136 88 168 80 _c
199 72 232 69 267 69 _c
}_e{323 69 368 83 401 113 _c
433 143 450 183 450 234 _c
450 284 433 324 401 354 _c
368 384 323 399 267 399 _c
241 399 214 396 188 390 _c
162 384 135 375 108 363 _c
108 729 _l
_cl}_e}_d
/six{{636 0 70 -13 573 742 _sc
330 404 _m
286 404 251 388 225 358 _c
199 328 186 286 186 234 _c
186 181 199 139 225 109 _c
251 79 286 64 330 64 _c
374 64 409 79 435 109 _c
461 139 474 181 474 234 _c
474 286 461 328 435 358 _c
409 388 374 404 330 404 _c
526 713 _m
526 623 _l
501 635 476 644 451 650 _c
425 656 400 659 376 659 _c
310 659 260 637 226 593 _c
}_e{192 549 172 482 168 394 _c
187 422 211 444 240 459 _c
269 474 301 482 336 482 _c
409 482 467 459 509 415 _c
551 371 573 310 573 234 _c
573 159 550 99 506 54 _c
462 9 403 -13 330 -13 _c
246 -13 181 19 137 83 _c
92 147 70 241 70 364 _c
70 479 97 571 152 639 _c
206 707 280 742 372 742 _c
396 742 421 739 447 735 _c
472 730 498 723 526 713 _c
_cl}_e}_d
/seven{636 0 82 0 551 729 _sc
82 729 _m
551 729 _l
551 687 _l
286 0 _l
183 0 _l
432 646 _l
82 646 _l
82 729 _l
_cl}_d
/nine{{636 0 63 -13 566 742 _sc
110 15 _m
110 105 _l
134 93 159 84 185 78 _c
210 72 235 69 260 69 _c
324 69 374 90 408 134 _c
442 178 462 244 468 334 _c
448 306 424 284 396 269 _c
367 254 335 247 300 247 _c
226 247 168 269 126 313 _c
84 357 63 417 63 494 _c
63 568 85 628 129 674 _c
173 719 232 742 306 742 _c
390 742 455 709 499 645 _c
543 580 566 486 566 364 _c
}_e{566 248 538 157 484 89 _c
429 21 356 -13 264 -13 _c
239 -13 214 -10 189 -6 _c
163 -2 137 5 110 15 _c
306 324 _m
350 324 385 339 411 369 _c
437 399 450 441 450 494 _c
450 546 437 588 411 618 _c
385 648 350 664 306 664 _c
262 664 227 648 201 618 _c
175 588 162 546 162 494 _c
162 441 175 399 201 369 _c
227 339 262 324 306 324 _c
_cl}_e}_d
/colon{337 0 117 0 220 517 _sc
117 124 _m
220 124 _l
220 0 _l
117 0 _l
117 124 _l
117 517 _m
220 517 _l
220 393 _l
117 393 _l
117 517 _l
_cl}_d
/E{632 0 98 0 568 729 _sc
98 729 _m
559 729 _l
559 646 _l
197 646 _l
197 430 _l
544 430 _l
544 347 _l
197 347 _l
197 83 _l
568 83 _l
568 0 _l
98 0 _l
98 729 _l
_cl}_d
/I{295 0 98 0 197 729 _sc
98 729 _m
197 729 _l
197 0 _l
98 0 _l
98 729 _l
_cl}_d
/L{557 0 98 0 552 729 _sc
98 729 _m
197 729 _l
197 83 _l
552 83 _l
552 0 _l
98 0 _l
98 729 _l
_cl}_d
/N{748 0 98 0 650 729 _sc
98 729 _m
231 729 _l
554 119 _l
554 729 _l
650 729 _l
650 0 _l
517 0 _l
194 610 _l
194 0 _l
98 0 _l
98 729 _l
_cl}_d
/O{787 0 56 -13 731 742 _sc
394 662 _m
322 662 265 635 223 582 _c
181 528 160 456 160 364 _c
160 272 181 199 223 146 _c
265 92 322 66 394 66 _c
465 66 522 92 564 146 _c
606 199 627 272 627 364 _c
627 456 606 528 564 582 _c
522 635 465 662 394 662 _c
394 742 _m
496 742 577 707 639 639 _c
700 571 731 479 731 364 _c
731 248 700 157 639 89 _c
577 21 496 -13 394 -13 _c
291 -13 209 21 148 89 _c
86 157 56 248 56 364 _c
56 479 86 571 148 639 _c
209 707 291 742 394 742 _c
_cl}_d
/R{{695 0 98 0 666 729 _sc
444 342 _m
465 334 486 319 506 296 _c
526 272 546 240 566 199 _c
666 0 _l
560 0 _l
467 187 _l
443 235 419 268 397 284 _c
374 300 343 308 304 308 _c
197 308 _l
197 0 _l
98 0 _l
98 729 _l
321 729 _l
404 729 466 711 507 677 _c
548 642 569 589 569 519 _c
569 473 558 434 537 404 _c
515 374 484 353 444 342 _c
197 648 _m
197 389 _l
321 389 _l
}_e{368 389 404 400 428 422 _c
452 444 465 476 465 519 _c
465 561 452 593 428 615 _c
404 637 368 648 321 648 _c
197 648 _l
_cl}_e}_d
/S{{635 0 66 -13 579 742 _sc
535 705 _m
535 609 _l
497 627 462 640 429 649 _c
395 657 363 662 333 662 _c
279 662 237 651 208 631 _c
179 610 165 580 165 542 _c
165 510 174 485 194 469 _c
213 452 250 439 304 429 _c
364 417 _l
437 403 491 378 526 343 _c
561 307 579 260 579 201 _c
579 130 555 77 508 41 _c
460 5 391 -13 300 -13 _c
265 -13 228 -9 189 -2 _c
}_e{150 5 110 16 69 32 _c
69 134 _l
109 111 148 94 186 83 _c
224 71 262 66 300 66 _c
356 66 399 77 430 99 _c
460 121 476 152 476 194 _c
476 230 465 258 443 278 _c
421 298 385 313 335 323 _c
275 335 _l
201 349 148 372 115 404 _c
82 435 66 478 66 534 _c
66 598 88 649 134 686 _c
179 723 242 742 322 742 _c
356 742 390 739 426 733 _c
461 727 497 717 535 705 _c
}_e{_cl}_e}_d
/T{611 0 -2 0 614 729 _sc
-2 729 _m
614 729 _l
614 646 _l
355 646 _l
355 0 _l
256 0 _l
256 646 _l
-2 646 _l
-2 729 _l
_cl}_d
/U{732 0 87 -13 645 729 _sc
87 729 _m
186 729 _l
186 286 _l
186 208 200 151 228 117 _c
256 83 302 66 366 66 _c
429 66 475 83 503 117 _c
531 151 546 208 546 286 _c
546 729 _l
645 729 _l
645 274 _l
645 178 621 107 574 59 _c
527 11 458 -13 366 -13 _c
274 -13 204 11 157 59 _c
110 107 87 178 87 274 _c
87 729 _l
_cl}_d
/bracketleft{390 0 86 -131 293 760 _sc
86 760 _m
293 760 _l
293 690 _l
176 690 _l
176 -61 _l
293 -61 _l
293 -131 _l
86 -131 _l
86 760 _l
_cl}_d
/bracketright{390 0 97 -131 304 760 _sc
304 760 _m
304 -131 _l
97 -131 _l
97 -61 _l
214 -61 _l
214 690 _l
97 690 _l
97 760 _l
304 760 _l
_cl}_d
/underscore{500 0 -9 -235 510 -165 _sc
510 -165 _m
510 -235 _l
-9 -235 _l
-9 -165 _l
510 -165 _l
_cl}_d
/e{{615 0 55 -13 562 560 _sc
562 296 _m
562 252 _l
149 252 _l
153 190 171 142 205 110 _c
238 78 284 62 344 62 _c
378 62 412 66 444 74 _c
476 82 509 95 541 113 _c
541 28 _l
509 14 476 3 442 -3 _c
408 -9 373 -13 339 -13 _c
251 -13 182 12 131 62 _c
80 112 55 181 55 268 _c
55 357 79 428 127 481 _c
175 533 241 560 323 560 _c
397 560 455 536 498 489 _c
}_e{540 441 562 377 562 296 _c
472 322 _m
471 371 457 410 431 440 _c
404 469 368 484 324 484 _c
274 484 234 469 204 441 _c
174 413 156 373 152 322 _c
472 322 _l
_cl}_e}_d
/i{278 0 94 0 184 760 _sc
94 547 _m
184 547 _l
184 0 _l
94 0 _l
94 547 _l
94 760 _m
184 760 _l
184 646 _l
94 646 _l
94 760 _l
_cl}_d
/j{278 0 -17 -207 184 760 _sc
94 547 _m
184 547 _l
184 -9 _l
184 -78 170 -128 144 -160 _c
117 -191 74 -207 16 -207 _c
-17 -207 _l
-17 -131 _l
6 -131 _l
40 -131 63 -123 75 -107 _c
87 -91 94 -58 94 -9 _c
94 547 _l
94 760 _m
184 760 _l
184 646 _l
94 646 _l
94 760 _l
_cl}_d
/m{{974 0 91 0 889 560 _sc
520 442 _m
542 482 569 511 600 531 _c
631 550 668 560 711 560 _c
767 560 811 540 842 500 _c
873 460 889 403 889 330 _c
889 0 _l
799 0 _l
799 327 _l
799 379 789 418 771 444 _c
752 469 724 482 686 482 _c
639 482 602 466 575 435 _c
548 404 535 362 535 309 _c
535 0 _l
445 0 _l
445 327 _l
445 379 435 418 417 444 _c
398 469 369 482 331 482 _c
}_e{285 482 248 466 221 435 _c
194 404 181 362 181 309 _c
181 0 _l
91 0 _l
91 547 _l
181 547 _l
181 462 _l
201 495 226 520 255 536 _c
283 552 317 560 357 560 _c
397 560 430 550 458 530 _c
486 510 506 480 520 442 _c
_cl}_e}_d
/r{411 0 91 0 411 560 _sc
411 463 _m
401 469 390 473 378 476 _c
366 478 353 480 339 480 _c
288 480 249 463 222 430 _c
194 397 181 350 181 288 _c
181 0 _l
91 0 _l
91 547 _l
181 547 _l
181 462 _l
199 495 224 520 254 536 _c
284 552 321 560 365 560 _c
371 560 378 559 386 559 _c
393 558 401 557 411 555 _c
411 463 _l
_cl}_d
/s{{521 0 54 -13 472 560 _sc
443 531 _m
443 446 _l
417 458 391 468 364 475 _c
336 481 308 485 279 485 _c
234 485 200 478 178 464 _c
156 450 145 430 145 403 _c
145 382 153 366 169 354 _c
185 342 217 330 265 320 _c
296 313 _l
360 299 405 279 432 255 _c
458 230 472 195 472 151 _c
472 100 452 60 412 31 _c
372 1 316 -13 246 -13 _c
216 -13 186 -10 154 -5 _c
}_e{122 0 89 8 54 20 _c
54 113 _l
87 95 120 82 152 74 _c
184 65 216 61 248 61 _c
290 61 323 68 346 82 _c
368 96 380 117 380 144 _c
380 168 371 187 355 200 _c
339 213 303 226 247 238 _c
216 245 _l
160 257 119 275 95 299 _c
70 323 58 356 58 399 _c
58 450 76 490 112 518 _c
148 546 200 560 268 560 _c
301 560 332 557 362 552 _c
391 547 418 540 443 531 _c
}_e{_cl}_e}_d
/z{525 0 43 0 482 547 _sc
55 547 _m
482 547 _l
482 465 _l
144 72 _l
482 72 _l
482 0 _l
43 0 _l
43 82 _l
381 475 _l
55 475 _l
55 547 _l
_cl}_d
/phi1{{660 0 55 -207 602 760 _sc
373 760 _m
373 558 _l
437 558 491 533 535 483 _c
579 432 602 362 602 273 _c
602 183 579 113 535 63 _c
491 13 437 -11 373 -11 _c
373 -207 _l
284 -207 _l
284 -11 _l
219 -11 165 13 121 63 _c
77 113 55 183 55 273 _c
55 362 77 432 121 483 _c
165 533 219 558 284 558 _c
284 760 _l
373 760 _l
373 68 _m
409 68 440 84 466 118 _c
}_e{493 155 507 207 507 273 _c
507 338 494 390 466 428 _c
440 461 409 478 373 478 _c
373 68 _l
284 68 _m
284 478 _l
247 478 216 461 191 428 _c
163 390 149 338 149 273 _c
149 207 163 155 191 118 _c
216 84 247 68 284 68 _c
_cl}_e}_d
/minus{838 0 106 272 732 355 _sc
106 355 _m
732 355 _l
732 272 _l
106 272 _l
106 355 _l
_cl}_d
end readonly def

/BuildGlyph
 {exch begin
 CharStrings exch
 2 copy known not{pop /.notdef}if
 true 3 1 roll get exec
 end}_d

/BuildChar {
 1 index /Encoding get exch get
 1 index /BuildGlyph get exec
}_d

FontName currentdict end definefont pop
%!PS-Adobe-3.0 Resource-Font
%%Title: DejaVu Sans Oblique
%%Copyright: Copyright (c) 2003 by Bitstream, Inc. All Rights Reserved. Copyright (c) 2006 by Tavmjong Bah. All Rights Reserved. DejaVu changes are in public domain 
%%Creator: Converted from TrueType to type 3 by PPR
25 dict begin
/_d{bind def}bind def
/_m{moveto}_d
/_l{lineto}_d
/_cl{closepath eofill}_d
/_c{curveto}_d
/_sc{7 -1 roll{setcachedevice}{pop pop pop pop pop pop}ifelse}_d
/_e{exec}_d
/FontName /DejaVuSans-Oblique def
/PaintType 0 def
/FontMatrix[.001 0 0 .001 0 0]def
/FontBBox[-1016 -350 1659 1068]def
/FontType 3 def
/Encoding [ /alpha ] def
/FontInfo 10 dict dup begin
/FamilyName (DejaVu Sans) def
/FullName (DejaVu Sans Oblique) def
/Notice (Copyright (c) 2003 by Bitstream, Inc. All Rights Reserved. Copyright (c) 2006 by Tavmjong Bah. All Rights Reserved. DejaVu changes are in public domain ) def
/Weight (Oblique) def
/Version (Version 2.35) def
/ItalicAngle -11.0 def
/isFixedPitch false def
/UnderlinePosition -130 def
/UnderlineThickness 90 def
end readonly def
/CharStrings 2 dict dup begin
/.notdef 0 def
/alpha{{659 0 55 -11 645 559 _sc
409 254 _m
410 367 _l
410 443 381 482 323 483 _c
279 483 244 465 218 429 _c
184 384 161 332 150 273 _c
136 201 137 148 155 114 _c
173 79 202 62 242 62 _c
285 62 325 96 362 166 _c
409 254 _l
338 559 _m
440 561 490 509 489 404 _c
489 404 514 451 565 547 _c
645 547 _l
487 250 _l
486 144 _l
486 128 490 113 499 100 _c
509 84 519 76 530 76 _c
}_e{573 76 _l
559 0 _l
504 0 _l
473 0 447 13 425 41 _c
415 55 409 76 409 104 _c
387 69 359 37 323 8 _c
305 -5 273 -11 227 -11 _c
151 -10 99 14 71 62 _c
43 112 37 183 55 273 _c
73 369 108 440 158 484 _c
213 533 273 558 338 559 _c
_cl}_e}_d
end readonly def

/BuildGlyph
 {exch begin
 CharStrings exch
 2 copy known not{pop /.notdef}if
 true 3 1 roll get exec
 end}_d

/BuildChar {
 1 index /Encoding get exch get
 1 index /BuildGlyph get exec
}_d

FontName currentdict end definefont pop
end
%%EndProlog
mpldict begin
93.967 231.182 translate
424.067 329.637 0 0 clipbox
gsave
0 0 m
424.066875 0 l
424.066875 329.637 l
0 329.637 l
cl
1.000 setgray
fill
grestore
gsave
59.746875 41.41875 m
416.866875 41.41875 l
416.866875 307.53075 l
59.746875 307.53075 l
cl
1.000 setgray
fill
grestore
0.800 setlinewidth
1 setlinejoin
0 setlinecap
[] 0 setdash
0.000 setgray
gsave
/o {
gsave
newpath
translate
0.8 setlinewidth
1 setlinejoin
0 setlinecap
0 0 m
0 -3.5 l

gsave
0.000 setgray
fill
grestore
stroke
grestore
} bind def
70.477 41.4188 o
grestore
/DejaVuSans findfont
10.000 scalefont
setfont
gsave
67.297295 26.825000 translate
0.000000 rotate
0.000000 0 m /zero glyphshow
grestore
gsave
/o {
gsave
newpath
translate
0.8 setlinewidth
1 setlinejoin
0 setlinecap
0 0 m
0 -3.5 l

gsave
0.000 setgray
fill
grestore
stroke
grestore
} bind def
125.503 41.4188 o
grestore
gsave
122.323490 26.825000 translate
0.000000 rotate
0.000000 0 m /five glyphshow
grestore
gsave
/o {
gsave
newpath
translate
0.8 setlinewidth
1 setlinejoin
0 setlinecap
0 0 m
0 -3.5 l

gsave
0.000 setgray
fill
grestore
stroke
grestore
} bind def
180.529 41.4188 o
grestore
gsave
174.169996 26.825000 translate
0.000000 rotate
0.000000 0 m /one glyphshow
6.362305 0 m /zero glyphshow
grestore
gsave
/o {
gsave
newpath
translate
0.8 setlinewidth
1 setlinejoin
0 setlinecap
0 0 m
0 -3.5 l

gsave
0.000 setgray
fill
grestore
stroke
grestore
} bind def
235.556 41.4188 o
grestore
gsave
229.196190 26.825000 translate
0.000000 rotate
0.000000 0 m /one glyphshow
6.362305 0 m /five glyphshow
grestore
gsave
/o {
gsave
newpath
translate
0.8 setlinewidth
1 setlinejoin
0 setlinecap
0 0 m
0 -3.5 l

gsave
0.000 setgray
fill
grestore
stroke
grestore
} bind def
290.582 41.4188 o
grestore
gsave
284.222384 26.825000 translate
0.000000 rotate
0.000000 0 m /two glyphshow
6.362305 0 m /zero glyphshow
grestore
gsave
/o {
gsave
newpath
translate
0.8 setlinewidth
1 setlinejoin
0 setlinecap
0 0 m
0 -3.5 l

gsave
0.000 setgray
fill
grestore
stroke
grestore
} bind def
345.608 41.4188 o
grestore
gsave
339.248579 26.825000 translate
0.000000 rotate
0.000000 0 m /two glyphshow
6.362305 0 m /five glyphshow
grestore
gsave
/o {
gsave
newpath
translate
0.8 setlinewidth
1 setlinejoin
0 setlinecap
0 0 m
0 -3.5 l

gsave
0.000 setgray
fill
grestore
stroke
grestore
} bind def
400.634 41.4188 o
grestore
gsave
394.274773 26.825000 translate
0.000000 rotate
0.000000 0 m /three glyphshow
6.362305 0 m /zero glyphshow
grestore
/DejaVuSans findfont
14.000 scalefont
setfont
gsave
202.986563 10.106250 translate
0.000000 rotate
0.000000 0 m /T glyphshow
8.176758 0 m /i glyphshow
12.066406 0 m /m glyphshow
25.704102 0 m /e glyphshow
34.317383 0 m /space glyphshow
38.767578 0 m /bracketleft glyphshow
44.229492 0 m /m glyphshow
57.867188 0 m /s glyphshow
65.161133 0 m /bracketright glyphshow
grestore
gsave
/o {
gsave
newpath
translate
0.8 setlinewidth
1 setlinejoin
0 setlinecap
-0 0 m
-3.5 0 l

gsave
0.000 setgray
fill
grestore
stroke
grestore
} bind def
59.7469 73.7588 o
grestore
gsave
24.746875 69.297836 translate
0.000000 rotate
/DejaVuSans findfont
10.0 scalefont
setfont
0.000000 0.976562 moveto
/one glyphshow
6.362305 0.976562 moveto
/zero glyphshow
/DejaVuSans findfont
7.0 scalefont
setfont
12.820312 4.804688 moveto
/minus glyphshow
18.685547 4.804688 moveto
/four glyphshow
23.139160 4.804688 moveto
/three glyphshow

grestore
gsave
/o {
gsave
newpath
translate
0.8 setlinewidth
1 setlinejoin
0 setlinecap
-0 0 m
-3.5 0 l

gsave
0.000 setgray
fill
grestore
stroke
grestore
} bind def
59.7469 113.876 o
grestore
gsave
24.746875 109.915295 translate
0.000000 rotate
/DejaVuSans findfont
10.0 scalefont
setfont
0.000000 0.064063 moveto
/one glyphshow
6.362305 0.064063 moveto
/zero glyphshow
/DejaVuSans findfont
7.0 scalefont
setfont
12.820312 3.892188 moveto
/minus glyphshow
18.685547 3.892188 moveto
/four glyphshow
23.139160 3.892188 moveto
/one glyphshow

grestore
gsave
/o {
gsave
newpath
translate
0.8 setlinewidth
1 setlinejoin
0 setlinecap
-0 0 m
-3.5 0 l

gsave
0.000 setgray
fill
grestore
stroke
grestore
} bind def
59.7469 153.994 o
grestore
gsave
24.746875 149.532754 translate
0.000000 rotate
/DejaVuSans findfont
10.0 scalefont
setfont
0.000000 0.976562 moveto
/one glyphshow
6.362305 0.976562 moveto
/zero glyphshow
/DejaVuSans findfont
7.0 scalefont
setfont
12.820312 4.804688 moveto
/minus glyphshow
18.685547 4.804688 moveto
/three glyphshow
23.139160 4.804688 moveto
/nine glyphshow

grestore
gsave
/o {
gsave
newpath
translate
0.8 setlinewidth
1 setlinejoin
0 setlinecap
-0 0 m
-3.5 0 l

gsave
0.000 setgray
fill
grestore
stroke
grestore
} bind def
59.7469 194.111 o
grestore
gsave
24.746875 189.650214 translate
0.000000 rotate
/DejaVuSans findfont
10.0 scalefont
setfont
0.000000 0.976562 moveto
/one glyphshow
6.362305 0.976562 moveto
/zero glyphshow
/DejaVuSans findfont
7.0 scalefont
setfont
12.820312 4.804688 moveto
/minus glyphshow
18.685547 4.804688 moveto
/three glyphshow
23.139160 4.804688 moveto
/seven glyphshow

grestore
gsave
/o {
gsave
newpath
translate
0.8 setlinewidth
1 setlinejoin
0 setlinecap
-0 0 m
-3.5 0 l

gsave
0.000 setgray
fill
grestore
stroke
grestore
} bind def
59.7469 234.229 o
grestore
gsave
24.746875 229.767673 translate
0.000000 rotate
/DejaVuSans findfont
10.0 scalefont
setfont
0.000000 0.976562 moveto
/one glyphshow
6.362305 0.976562 moveto
/zero glyphshow
/DejaVuSans findfont
7.0 scalefont
setfont
12.820312 4.804688 moveto
/minus glyphshow
18.685547 4.804688 moveto
/three glyphshow
23.139160 4.804688 moveto
/five glyphshow

grestore
gsave
/o {
gsave
newpath
translate
0.8 setlinewidth
1 setlinejoin
0 setlinecap
-0 0 m
-3.5 0 l

gsave
0.000 setgray
fill
grestore
stroke
grestore
} bind def
59.7469 274.346 o
grestore
gsave
24.746875 269.885132 translate
0.000000 rotate
/DejaVuSans findfont
10.0 scalefont
setfont
0.000000 0.976562 moveto
/one glyphshow
6.362305 0.976562 moveto
/zero glyphshow
/DejaVuSans findfont
7.0 scalefont
setfont
12.820312 4.804688 moveto
/minus glyphshow
18.685547 4.804688 moveto
/three glyphshow
23.139160 4.804688 moveto
/three glyphshow

grestore
gsave
15.746875 160.974750 translate
90.000000 rotate
/DejaVuSans-Oblique findfont
14.0 scalefont
setfont
0.000000 0.140625 moveto
/alpha glyphshow
/DejaVuSans findfont
9.799999999999999 scalefont
setfont
9.228516 -2.156250 moveto
/R glyphshow
16.037793 -2.156250 moveto
/comma glyphshow
21.062207 -2.156250 moveto
/i glyphshow
23.784961 -2.156250 moveto
/j glyphshow

grestore
1.000 setlinewidth
0.750 0.000 0.750 setrgbcolor
gsave
357.1 266.1 59.75 41.42 clipbox
/o {
gsave
newpath
translate
1.0 setlinewidth
1 setlinejoin
0 setlinecap
0 -1.5 m
0.397805 -1.5 0.77937 -1.341951 1.06066 -1.06066 c
1.341951 -0.77937 1.5 -0.397805 1.5 0 c
1.5 0.397805 1.341951 0.77937 1.06066 1.06066 c
0.77937 1.341951 0.397805 1.5 0 1.5 c
-0.397805 1.5 -0.77937 1.341951 -1.06066 1.06066 c
-1.341951 0.77937 -1.5 0.397805 -1.5 0 c
-1.5 -0.397805 -1.341951 -0.77937 -1.06066 -1.06066 c
-0.77937 -1.341951 -0.397805 -1.5 0 -1.5 c
cl

gsave
0.750 0.000 0.750 setrgbcolor
fill
grestore
stroke
grestore
} bind def
75.9796 135.413 o
81.4822 133.687 o
86.9848 143.328 o
92.4875 159.101 o
97.9901 168.07 o
103.493 176.305 o
108.995 186.758 o
114.498 196.935 o
120.001 206.461 o
125.503 216.212 o
131.006 226.126 o
136.508 235.911 o
142.011 245.623 o
147.514 255.261 o
153.016 264.55 o
158.519 272.89 o
164.022 279.261 o
169.524 282.908 o
175.027 284.401 o
180.529 285.037 o
186.032 285.627 o
191.535 283.995 o
197.037 287.78 o
202.54 277.715 o
208.042 278.555 o
213.545 279.698 o
219.048 279.498 o
224.55 280.118 o
230.053 280.564 o
235.556 280.063 o
241.058 280.139 o
246.561 279.377 o
252.063 280.616 o
257.566 281.742 o
263.069 281.689 o
268.571 279.926 o
274.074 281.164 o
279.577 279.321 o
285.079 277.755 o
290.582 278.777 o
296.084 277.65 o
301.587 278.822 o
307.09 281.067 o
312.592 281.31 o
318.095 281.363 o
323.597 281.944 o
329.1 281.83 o
334.603 280.76 o
340.105 280.502 o
345.608 281.206 o
351.111 282.854 o
356.613 280.269 o
362.116 278.89 o
367.618 277.973 o
373.121 277.731 o
378.624 279.648 o
384.126 280.58 o
389.629 277.346 o
395.132 277.992 o
400.634 280.115 o
grestore
gsave
357.1 266.1 59.75 41.42 clipbox
/o {
gsave
newpath
translate
1.0 setlinewidth
1 setlinejoin
0 setlinecap
-3 -3 m
3 3 l
-3 3 m
3 -3 l

gsave
0.750 0.000 0.750 setrgbcolor
fill
grestore
stroke
grestore
} bind def
grestore
0.000 0.750 0.750 setrgbcolor
gsave
357.1 266.1 59.75 41.42 clipbox
/o {
gsave
newpath
translate
1.0 setlinewidth
1 setlinejoin
0 setlinecap
0 -1.5 m
0.397805 -1.5 0.77937 -1.341951 1.06066 -1.06066 c
1.341951 -0.77937 1.5 -0.397805 1.5 0 c
1.5 0.397805 1.341951 0.77937 1.06066 1.06066 c
0.77937 1.341951 0.397805 1.5 0 1.5 c
-0.397805 1.5 -0.77937 1.341951 -1.06066 1.06066 c
-1.341951 0.77937 -1.5 0.397805 -1.5 0 c
-1.5 -0.397805 -1.341951 -0.77937 -1.06066 -1.06066 c
-0.77937 -1.341951 -0.397805 -1.5 0 -1.5 c
cl

gsave
0.000 0.750 0.750 setrgbcolor
fill
grestore
stroke
grestore
} bind def
grestore
gsave
357.1 266.1 59.75 41.42 clipbox
/o {
gsave
newpath
translate
1.0 setlinewidth
1 setlinejoin
0 setlinecap
-3 -3 m
3 3 l
-3 3 m
3 -3 l

gsave
0.000 0.750 0.750 setrgbcolor
fill
grestore
stroke
grestore
} bind def
75.9796 134.93 o
81.4822 139.628 o
86.9848 143.446 o
92.4875 156.551 o
97.9901 168.081 o
103.493 176.512 o
108.995 186.068 o
114.498 196.388 o
120.001 206.176 o
125.503 215.836 o
131.006 225.694 o
136.508 235.534 o
142.011 245.266 o
147.514 254.898 o
153.016 264.201 o
158.519 272.557 o
164.022 278.931 o
169.524 282.567 o
175.027 284.003 o
180.529 284.548 o
186.032 285.07 o
191.535 283.149 o
197.037 286.522 o
202.54 275.264 o
208.042 275.364 o
213.545 279.181 o
219.048 280.79 o
224.55 282.697 o
230.053 283.911 o
235.556 283.766 o
241.058 283.942 o
246.561 283.351 o
252.063 284.778 o
257.566 286.659 o
263.069 287.101 o
268.571 284.913 o
274.074 285.931 o
279.577 283.96 o
285.079 281.949 o
290.582 282.168 o
296.084 277.355 o
301.587 276.335 o
307.09 278.684 o
312.592 279.984 o
318.095 281.381 o
323.597 282.894 o
329.1 283.534 o
334.603 282.497 o
340.105 282.338 o
345.608 283.93 o
351.111 286.262 o
356.613 283.926 o
362.116 282.371 o
367.618 280.591 o
373.121 278.626 o
378.624 279.755 o
384.126 281.959 o
389.629 279.087 o
395.132 278.366 o
400.634 279.581 o
grestore
0.750 0.750 0.000 setrgbcolor
gsave
357.1 266.1 59.75 41.42 clipbox
/o {
gsave
newpath
translate
1.0 setlinewidth
1 setlinejoin
0 setlinecap
0 -1.5 m
0.397805 -1.5 0.77937 -1.341951 1.06066 -1.06066 c
1.341951 -0.77937 1.5 -0.397805 1.5 0 c
1.5 0.397805 1.341951 0.77937 1.06066 1.06066 c
0.77937 1.341951 0.397805 1.5 0 1.5 c
-0.397805 1.5 -0.77937 1.341951 -1.06066 1.06066 c
-1.341951 0.77937 -1.5 0.397805 -1.5 0 c
-1.5 -0.397805 -1.341951 -0.77937 -1.06066 -1.06066 c
-0.77937 -1.341951 -0.397805 -1.5 0 -1.5 c
cl

gsave
0.750 0.750 0.000 setrgbcolor
fill
grestore
stroke
grestore
} bind def
81.4617 -1 o
81.4822 70.6477 o
86.9848 70.7531 o
92.4875 75.6706 o
97.9901 83.8707 o
103.493 89.9986 o
108.995 99.4922 o
114.498 110.683 o
120.001 120.354 o
125.503 130.152 o
131.006 138.896 o
136.508 147.71 o
142.011 156.833 o
147.514 166.519 o
153.016 176.563 o
158.519 184.87 o
164.022 189.903 o
169.524 194.181 o
175.027 193.582 o
180.529 204.556 o
180.588 -1 o
191.476 -1 o
191.535 203.868 o
191.593 -1 o
202.472 -1 o
202.54 238.258 o
208.042 242.313 o
213.545 252.607 o
219.048 256.067 o
224.55 251.613 o
224.622 -1 o
251.994 -1 o
252.063 243.99 o
252.133 -1 o
274.01 -1 o
274.074 222.814 o
279.577 220.879 o
279.64 -1 o
296.012 -1 o
296.084 253.054 o
301.587 242.243 o
301.656 -1 o
334.537 -1 o
334.603 231.021 o
334.669 -1 o
351.038 -1 o
351.111 253.33 o
356.613 250.364 o
362.116 251.058 o
367.618 248.663 o
367.689 -1 o
grestore
gsave
357.1 266.1 59.75 41.42 clipbox
/o {
gsave
newpath
translate
1.0 setlinewidth
1 setlinejoin
0 setlinecap
-3 -3 m
3 3 l
-3 3 m
3 -3 l

gsave
0.750 0.750 0.000 setrgbcolor
fill
grestore
stroke
grestore
} bind def
75.9796 53.5148 o
75.9952 -1 o
185.974 -1 o
186.032 202.557 o
186.09 -1 o
196.968 -1 o
197.037 241.693 o
197.106 -1 o
229.983 -1 o
230.053 243.831 o
235.556 245.398 o
241.058 228.21 o
246.561 243.329 o
246.63 -1 o
257.505 -1 o
257.566 214.996 o
263.069 234.733 o
268.571 218.161 o
268.634 -1 o
285.009 -1 o
285.079 247.198 o
290.582 257.471 o
290.655 -1 o
307.021 -1 o
307.09 241.943 o
312.592 245.109 o
318.095 235.869 o
323.597 206.825 o
329.1 255.599 o
329.173 -1 o
340.034 -1 o
340.105 250.759 o
345.608 231.615 o
345.674 -1 o
373.05 -1 o
373.121 247.515 o
378.624 252.871 o
384.126 237.291 o
389.629 247.718 o
395.132 247.75 o
400.634 242.437 o
grestore
0.000 setgray
gsave
357.1 266.1 59.75 41.42 clipbox
/o {
gsave
newpath
translate
1.0 setlinewidth
1 setlinejoin
0 setlinecap
0 -1.5 m
0.397805 -1.5 0.77937 -1.341951 1.06066 -1.06066 c
1.341951 -0.77937 1.5 -0.397805 1.5 0 c
1.5 0.397805 1.341951 0.77937 1.06066 1.06066 c
0.77937 1.341951 0.397805 1.5 0 1.5 c
-0.397805 1.5 -0.77937 1.341951 -1.06066 1.06066 c
-1.341951 0.77937 -1.5 0.397805 -1.5 0 c
-1.5 -0.397805 -1.341951 -0.77937 -1.06066 -1.06066 c
-0.77937 -1.341951 -0.397805 -1.5 0 -1.5 c
cl

gsave
0.000 setgray
fill
grestore
stroke
grestore
} bind def
75.9796 138.051 o
81.4822 147.035 o
86.9848 144.551 o
92.4875 154.329 o
97.9901 168.199 o
103.493 176.81 o
108.995 185.464 o
114.498 195.908 o
120.001 205.951 o
125.503 215.518 o
131.006 225.319 o
136.508 235.212 o
142.011 244.966 o
147.514 254.595 o
153.016 263.911 o
158.519 272.279 o
164.022 278.653 o
169.524 282.273 o
175.027 283.648 o
180.529 284.141 o
186.032 284.775 o
191.535 282.937 o
197.037 287.875 o
202.54 284.321 o
208.042 284.374 o
213.545 286.486 o
219.048 288.045 o
224.55 289.908 o
230.053 291.482 o
235.556 291.567 o
241.058 291.943 o
246.561 290.721 o
252.063 292.037 o
257.566 294.415 o
263.069 295.435 o
268.571 293.463 o
274.074 295.279 o
279.577 293.337 o
285.079 290.362 o
290.582 292.811 o
296.084 290.321 o
301.587 290.391 o
307.09 291.486 o
312.592 290.701 o
318.095 290.227 o
323.597 290.482 o
329.1 291.149 o
334.603 289.65 o
340.105 288.378 o
345.608 289.793 o
351.111 292.914 o
356.613 291.711 o
362.116 289.416 o
367.618 289.555 o
373.121 288.495 o
378.624 289.373 o
384.126 290.827 o
389.629 288.991 o
395.132 289.896 o
400.634 289.672 o
grestore
gsave
357.1 266.1 59.75 41.42 clipbox
/o {
gsave
newpath
translate
1.0 setlinewidth
1 setlinejoin
0 setlinecap
-3 -3 m
3 3 l
-3 3 m
3 -3 l

gsave
0.000 setgray
fill
grestore
stroke
grestore
} bind def
grestore
1.000 0.000 0.000 setrgbcolor
gsave
357.1 266.1 59.75 41.42 clipbox
/o {
gsave
newpath
translate
1.0 setlinewidth
1 setlinejoin
0 setlinecap
0 -1.5 m
0.397805 -1.5 0.77937 -1.341951 1.06066 -1.06066 c
1.341951 -0.77937 1.5 -0.397805 1.5 0 c
1.5 0.397805 1.341951 0.77937 1.06066 1.06066 c
0.77937 1.341951 0.397805 1.5 0 1.5 c
-0.397805 1.5 -0.77937 1.341951 -1.06066 1.06066 c
-1.341951 0.77937 -1.5 0.397805 -1.5 0 c
-1.5 -0.397805 -1.341951 -0.77937 -1.06066 -1.06066 c
-0.77937 -1.341951 -0.397805 -1.5 0 -1.5 c
cl

gsave
1.000 0.000 0.000 setrgbcolor
fill
grestore
stroke
grestore
} bind def
81.4647 -1 o
81.4822 60.0412 o
86.9848 83.1868 o
92.4875 82.2726 o
92.5113 -1 o
185.974 -1 o
186.032 202.694 o
191.535 190.832 o
197.037 246.243 o
197.107 -1 o
235.483 -1 o
235.556 253.808 o
241.058 244.176 o
246.561 241.984 o
246.63 -1 o
274.005 -1 o
274.074 240.949 o
279.577 239.721 o
285.079 258.745 o
290.582 262.357 o
290.657 -1 o
329.028 -1 o
329.1 253.375 o
334.603 247.996 o
340.105 248.225 o
345.608 258.02 o
345.681 -1 o
373.052 -1 o
373.121 242.877 o
378.624 255.065 o
384.126 254.059 o
389.629 255.341 o
395.132 252.807 o
400.634 247.714 o
grestore
gsave
357.1 266.1 59.75 41.42 clipbox
/o {
gsave
newpath
translate
1.0 setlinewidth
1 setlinejoin
0 setlinecap
-3 -3 m
3 3 l
-3 3 m
3 -3 l

gsave
1.000 0.000 0.000 setrgbcolor
fill
grestore
stroke
grestore
} bind def
75.9796 70.4929 o
76.0001 -1 o
97.9645 -1 o
97.9901 88.3261 o
103.493 94.4504 o
108.995 100.839 o
114.498 109.246 o
120.001 118.875 o
125.503 129.515 o
131.006 138.887 o
136.508 147.992 o
142.011 157.555 o
147.514 167.28 o
153.016 176.446 o
158.519 184.75 o
164.022 190.508 o
169.524 195.671 o
175.027 192.214 o
180.529 202.019 o
180.587 -1 o
202.471 -1 o
202.54 241.007 o
208.042 247.027 o
213.545 251.651 o
219.048 256.704 o
224.55 259.112 o
230.053 243.256 o
230.122 -1 o
252 -1 o
252.063 220.403 o
257.566 238.987 o
263.069 253.515 o
268.571 240.35 o
268.64 -1 o
296.015 -1 o
296.084 243.905 o
301.587 258.617 o
307.09 261.622 o
312.592 258.359 o
318.095 252.759 o
323.597 248.505 o
323.668 -1 o
351.042 -1 o
351.111 241.849 o
356.613 252.781 o
362.116 251.303 o
367.618 249.943 o
367.69 -1 o
grestore
0.000 0.500 0.000 setrgbcolor
gsave
357.1 266.1 59.75 41.42 clipbox
/o {
gsave
newpath
translate
1.0 setlinewidth
1 setlinejoin
0 setlinecap
0 -1.5 m
0.397805 -1.5 0.77937 -1.341951 1.06066 -1.06066 c
1.341951 -0.77937 1.5 -0.397805 1.5 0 c
1.5 0.397805 1.341951 0.77937 1.06066 1.06066 c
0.77937 1.341951 0.397805 1.5 0 1.5 c
-0.397805 1.5 -0.77937 1.341951 -1.06066 1.06066 c
-1.341951 0.77937 -1.5 0.397805 -1.5 0 c
-1.5 -0.397805 -1.341951 -0.77937 -1.06066 -1.06066 c
-0.77937 -1.341951 -0.397805 -1.5 0 -1.5 c
cl

gsave
0.000 0.500 0.000 setrgbcolor
fill
grestore
stroke
grestore
} bind def
75.9796 131.531 o
81.4822 140.505 o
86.9848 145.101 o
92.4875 147.761 o
97.9901 149.543 o
103.493 150.847 o
108.995 151.986 o
114.498 153.324 o
120.001 155.548 o
125.503 160.085 o
131.006 167.783 o
136.508 177.528 o
142.011 187.798 o
147.514 198.708 o
153.016 209.611 o
158.519 219.554 o
164.022 227.752 o
169.524 234.137 o
175.027 238.362 o
180.529 243.027 o
186.032 249.532 o
191.535 247.563 o
197.037 268.742 o
202.54 270.837 o
208.042 271.578 o
213.545 271.373 o
219.048 270.233 o
224.55 269.243 o
230.053 269.208 o
235.556 267.282 o
241.058 266.439 o
246.561 263.453 o
252.063 264.948 o
257.566 264.585 o
263.069 264.361 o
268.571 264.137 o
274.074 269.195 o
279.577 265.289 o
285.079 266.439 o
290.582 274.286 o
296.084 273.291 o
301.587 276.099 o
307.09 275.689 o
312.592 274.123 o
318.095 272.37 o
323.597 271.582 o
329.1 271.694 o
334.603 268.448 o
340.105 265.082 o
345.608 267.898 o
351.111 271.89 o
356.613 266.244 o
362.116 266.686 o
367.618 272.819 o
373.121 272.023 o
378.624 271.166 o
384.126 271.489 o
389.629 268.492 o
395.132 271.022 o
400.634 270.424 o
grestore
gsave
357.1 266.1 59.75 41.42 clipbox
/o {
gsave
newpath
translate
1.0 setlinewidth
1 setlinejoin
0 setlinecap
-3 -3 m
3 3 l
-3 3 m
3 -3 l

gsave
0.000 0.500 0.000 setrgbcolor
fill
grestore
stroke
grestore
} bind def
grestore
0.800 setlinewidth
0 setlinejoin
2 setlinecap
0.000 setgray
gsave
59.746875 41.41875 m
59.746875 307.53075 l
stroke
grestore
gsave
416.866875 41.41875 m
416.866875 307.53075 l
stroke
grestore
gsave
59.746875 41.41875 m
416.866875 41.41875 l
stroke
grestore
gsave
59.746875 307.53075 m
416.866875 307.53075 l
stroke
grestore
/DejaVuSans findfont
12.000 scalefont
setfont
gsave
161.150625 313.530750 translate
0.000000 rotate
0.000000 0 m /R glyphshow
8.337891 0 m /E glyphshow
15.919922 0 m /S glyphshow
23.537109 0 m /O glyphshow
32.982422 0 m /L glyphshow
39.042969 0 m /U glyphshow
47.826172 0 m /T glyphshow
55.156250 0 m /I glyphshow
58.695312 0 m /O glyphshow
68.140625 0 m /N glyphshow
77.117188 0 m /space glyphshow
80.931641 0 m /colon glyphshow
84.974609 0 m /space glyphshow
88.789062 0 m /six glyphshow
96.423828 0 m /zero glyphshow
104.058594 0 m /underscore glyphshow
110.058594 0 m /two glyphshow
117.693359 0 m /four glyphshow
125.328125 0 m /zero glyphshow
132.962891 0 m /underscore glyphshow
138.962891 0 m /six glyphshow
146.597656 0 m /zero glyphshow
grestore
1.000 setlinewidth
0 setlinecap
0.800 setgray
gsave
267.166875 46.91875 m
409.166875 46.91875 l
410.633542 46.91875 411.366875 47.652083 411.366875 49.11875 c
411.366875 100.596875 l
411.366875 102.063542 410.633542 102.796875 409.166875 102.796875 c
267.166875 102.796875 l
265.700208 102.796875 264.966875 102.063542 264.966875 100.596875 c
264.966875 49.11875 l
264.966875 47.652083 265.700208 46.91875 267.166875 46.91875 c
cl
gsave
1.000 setgray
fill
grestore
stroke
grestore
1 setlinejoin
0.750 0.000 0.750 setrgbcolor
gsave
/o {
gsave
newpath
translate
1.0 setlinewidth
1 setlinejoin
0 setlinecap
0 -1.5 m
0.397805 -1.5 0.77937 -1.341951 1.06066 -1.06066 c
1.341951 -0.77937 1.5 -0.397805 1.5 0 c
1.5 0.397805 1.341951 0.77937 1.06066 1.06066 c
0.77937 1.341951 0.397805 1.5 0 1.5 c
-0.397805 1.5 -0.77937 1.341951 -1.06066 1.06066 c
-1.341951 0.77937 -1.5 0.397805 -1.5 0 c
-1.5 -0.397805 -1.341951 -0.77937 -1.06066 -1.06066 c
-0.77937 -1.341951 -0.397805 -1.5 0 -1.5 c
cl

gsave
0.750 0.000 0.750 setrgbcolor
fill
grestore
stroke
grestore
} bind def
280.367 93.8875 o
grestore
0.000 setgray
gsave
300.166875 90.037500 translate
0.000000 rotate
/DejaVuSans-Oblique findfont
11.0 scalefont
setfont
0.000000 0.828125 moveto
/alpha glyphshow
/DejaVuSans findfont
7.699999999999999 scalefont
setfont
7.250977 -0.976562 moveto
/R glyphshow
12.601123 -0.976562 moveto
/comma glyphshow
16.548877 -0.976562 moveto
/r glyphshow
19.714600 -0.976562 moveto
/r glyphshow

grestore
0.000 0.750 0.750 setrgbcolor
gsave
/o {
gsave
newpath
translate
1.0 setlinewidth
1 setlinejoin
0 setlinecap
0 -1.5 m
0.397805 -1.5 0.77937 -1.341951 1.06066 -1.06066 c
1.341951 -0.77937 1.5 -0.397805 1.5 0 c
1.5 0.397805 1.341951 0.77937 1.06066 1.06066 c
0.77937 1.341951 0.397805 1.5 0 1.5 c
-0.397805 1.5 -0.77937 1.341951 -1.06066 1.06066 c
-1.341951 0.77937 -1.5 0.397805 -1.5 0 c
-1.5 -0.397805 -1.341951 -0.77937 -1.06066 -1.06066 c
-0.77937 -1.341951 -0.397805 -1.5 0 -1.5 c
cl

gsave
0.000 0.750 0.750 setrgbcolor
fill
grestore
stroke
grestore
} bind def
280.367 77.0281 o
grestore
0.000 setgray
gsave
300.166875 73.178125 translate
0.000000 rotate
/DejaVuSans-Oblique findfont
11.0 scalefont
setfont
0.000000 0.828125 moveto
/alpha glyphshow
/DejaVuSans findfont
7.699999999999999 scalefont
setfont
7.250977 -0.976562 moveto
/R glyphshow
12.601123 -0.976562 moveto
/comma glyphshow
16.548877 -0.976562 moveto
/r glyphshow
19.714600 -0.976562 moveto
/phi1 glyphshow

grestore
0.750 0.750 0.000 setrgbcolor
gsave
/o {
gsave
newpath
translate
1.0 setlinewidth
1 setlinejoin
0 setlinecap
0 -1.5 m
0.397805 -1.5 0.77937 -1.341951 1.06066 -1.06066 c
1.341951 -0.77937 1.5 -0.397805 1.5 0 c
1.5 0.397805 1.341951 0.77937 1.06066 1.06066 c
0.77937 1.341951 0.397805 1.5 0 1.5 c
-0.397805 1.5 -0.77937 1.341951 -1.06066 1.06066 c
-1.341951 0.77937 -1.5 0.397805 -1.5 0 c
-1.5 -0.397805 -1.341951 -0.77937 -1.06066 -1.06066 c
-0.77937 -1.341951 -0.397805 -1.5 0 -1.5 c
cl

gsave
0.750 0.750 0.000 setrgbcolor
fill
grestore
stroke
grestore
} bind def
280.367 59.1687 o
grestore
0.000 setgray
gsave
300.166875 55.318750 translate
0.000000 rotate
/DejaVuSans-Oblique findfont
11.0 scalefont
setfont
0.000000 0.828125 moveto
/alpha glyphshow
/DejaVuSans findfont
7.699999999999999 scalefont
setfont
7.250977 -0.976562 moveto
/R glyphshow
12.601123 -0.976562 moveto
/comma glyphshow
16.548877 -0.976562 moveto
/r glyphshow
19.714600 -0.976562 moveto
/z glyphshow

grestore
gsave
/o {
gsave
newpath
translate
1.0 setlinewidth
1 setlinejoin
0 setlinecap
0 -1.5 m
0.397805 -1.5 0.77937 -1.341951 1.06066 -1.06066 c
1.341951 -0.77937 1.5 -0.397805 1.5 0 c
1.5 0.397805 1.341951 0.77937 1.06066 1.06066 c
0.77937 1.341951 0.397805 1.5 0 1.5 c
-0.397805 1.5 -0.77937 1.341951 -1.06066 1.06066 c
-1.341951 0.77937 -1.5 0.397805 -1.5 0 c
-1.5 -0.397805 -1.341951 -0.77937 -1.06066 -1.06066 c
-0.77937 -1.341951 -0.397805 -1.5 0 -1.5 c
cl

gsave
0.000 setgray
fill
grestore
stroke
grestore
} bind def
359.167 93.8875 o
grestore
gsave
378.966875 90.037500 translate
0.000000 rotate
/DejaVuSans-Oblique findfont
11.0 scalefont
setfont
0.000000 0.828125 moveto
/alpha glyphshow
/DejaVuSans findfont
7.699999999999999 scalefont
setfont
7.250977 -0.976562 moveto
/R glyphshow
12.601123 -0.976562 moveto
/comma glyphshow
16.548877 -0.976562 moveto
/phi1 glyphshow
21.628320 -0.976562 moveto
/phi1 glyphshow

grestore
1.000 0.000 0.000 setrgbcolor
gsave
/o {
gsave
newpath
translate
1.0 setlinewidth
1 setlinejoin
0 setlinecap
0 -1.5 m
0.397805 -1.5 0.77937 -1.341951 1.06066 -1.06066 c
1.341951 -0.77937 1.5 -0.397805 1.5 0 c
1.5 0.397805 1.341951 0.77937 1.06066 1.06066 c
0.77937 1.341951 0.397805 1.5 0 1.5 c
-0.397805 1.5 -0.77937 1.341951 -1.06066 1.06066 c
-1.341951 0.77937 -1.5 0.397805 -1.5 0 c
-1.5 -0.397805 -1.341951 -0.77937 -1.06066 -1.06066 c
-0.77937 -1.341951 -0.397805 -1.5 0 -1.5 c
cl

gsave
1.000 0.000 0.000 setrgbcolor
fill
grestore
stroke
grestore
} bind def
359.167 76.0281 o
grestore
0.000 setgray
gsave
378.966875 72.178125 translate
0.000000 rotate
/DejaVuSans-Oblique findfont
11.0 scalefont
setfont
0.000000 0.828125 moveto
/alpha glyphshow
/DejaVuSans findfont
7.699999999999999 scalefont
setfont
7.250977 -0.976562 moveto
/R glyphshow
12.601123 -0.976562 moveto
/comma glyphshow
16.548877 -0.976562 moveto
/phi1 glyphshow
21.628320 -0.976562 moveto
/z glyphshow

grestore
0.000 0.500 0.000 setrgbcolor
gsave
/o {
gsave
newpath
translate
1.0 setlinewidth
1 setlinejoin
0 setlinecap
0 -1.5 m
0.397805 -1.5 0.77937 -1.341951 1.06066 -1.06066 c
1.341951 -0.77937 1.5 -0.397805 1.5 0 c
1.5 0.397805 1.341951 0.77937 1.06066 1.06066 c
0.77937 1.341951 0.397805 1.5 0 1.5 c
-0.397805 1.5 -0.77937 1.341951 -1.06066 1.06066 c
-1.341951 0.77937 -1.5 0.397805 -1.5 0 c
-1.5 -0.397805 -1.341951 -0.77937 -1.06066 -1.06066 c
-0.77937 -1.341951 -0.397805 -1.5 0 -1.5 c
cl

gsave
0.000 0.500 0.000 setrgbcolor
fill
grestore
stroke
grestore
} bind def
359.167 58.1687 o
grestore
0.000 setgray
gsave
378.966875 54.318750 translate
0.000000 rotate
/DejaVuSans-Oblique findfont
11.0 scalefont
setfont
0.000000 0.828125 moveto
/alpha glyphshow
/DejaVuSans findfont
7.699999999999999 scalefont
setfont
7.250977 -0.976562 moveto
/R glyphshow
12.601123 -0.976562 moveto
/comma glyphshow
16.548877 -0.976562 moveto
/z glyphshow
20.590625 -0.976562 moveto
/z glyphshow

grestore

end
showpage
