1863.6443866572072	420.6377229197883	-5.772213876565941	17333896460.685844	8529.873136916074	27374.29794587338
564.4212985964095	-2496806.754253735	-1.36367714774665	17335181550.541862	8609.911824724692	42.45094944333154
375.8756418682622	-2070056.5873633719	-1.0901719726966077	17337439322.627777	8624.55454723587	46.64685179786387
2633.2209919549123	965280.1316063752	0.5021297726546837	17338004175.46157	8584.792187699446	48.04532865304756
7118.23253667029	3135097.8367389943	1.4954017876372565	17336129767.738075	8549.835572373275	58.43907428394679
7421.0017915136805	1977568.6947257156	0.9806960962157845	17333805343.746582	8568.484111304882	75.57369137699794
30377.477593493688	-1206819.7870086129	-0.7294575612663821	17333544201.552917	8665.22394616788	107.52044510958004
123495.22403933536	-2779058.9186899033	-0.34328868911190175	17335571878.937576	8702.2726383407	266.0409677937512
327777.5213037543	-793054.9210386995	3.031199334133145	17337676168.49349	9024.575857281	821.2756461141223
953589.7948840555	3111942.4200965688	11.713185775382506	17338034411.883614	9973.152013689993	2145.9436126401883
3130825.2646786915	6399134.808694616	24.901139468844416	17338032813.891365	11099.315019805848	5600.6378435335355
9701853.612640701	10850525.612304606	85.94707770904242	17343178468.9538	11356.30234285139	18611.504246246073
29371679.619490873	28384187.220044337	304.2314684111571	17365197902.267307	12915.803636696248	63884.78260337015
90997434.20543182	92190021.88055602	929.2077695331856	17432981858.09609	16503.35989649282	194783.76868770056
282488164.4436343	292773454.915234	3247.7586215402666	17633603550.724617	37301.191121749725	645167.6414517772
870426643.423104	903256285.3784332	10939.203257071624	18247105368.22473	93166.4994302628	2155455.9214706337
2678400429.7878027	2773472387.693376	34888.23098437338	20151113730.94748	270647.13352461305	7081757.958584635
8196827021.432457	8483840484.648752	97971.0225079163	26149019286.887646	699645.2970547811	23194975.40144145
24640869235.337	25673801167.728073	422182.0583391394	45429039540.39882	1268240.0073140806	67726697.12856023
72913625516.06453	78248452866.6797	2402087.701707959	107211035695.4728	595703.4634372246	270472930.8150178
220006386826.17355	236403940353.89545	3065409.508950975	282793366423.39746	18877262.192086168	1499673918.3437467
530332145947.172	545327092864.32214	16727737.111730976	834698578070.9513	34506111.799212605	5355749318.961219
714214508810.189	677261108596.7365	-261598086.66267127	2133670554406.5586	-3597364826.207159	208453278255.16757
481368157779.7341	-278572175754.4993	20897708946.430786	1691248074833.8906	-27638368126.861717	250665969211.26007
246145157376.72552	16532445306.08086	-12411810596.308226	701263159359.3363	6970577463.310957	161446783012.42545
160544604185.89227	21756011522.305626	-4572242741.191443	204033534972.96402	-9137978667.393003	72731968099.64575
