0.0	0.0	0.0	0.0	0.0	0.00152587890625
1.5989455198550924e+20	-1.5302000127052848e+20	2958640568088154.5	1.6460029650997323e+20	-1.636519339866536e+16	1.7416273055455124e+20
1.3001558385021531e+20	-2.6444977861431902e+20	-1.074363700909095e+16	5.8925200474589607e+20	-3.14941682716203e+16	1.9240818146652363e+20
3.9575679687958436e+20	-4.0788053983828437e+20	-1.2436056799742608e+16	4.436256651292987e+20	-1.3612596121220056e+16	1.953717047830258e+20
2.478175536341778e+21	-1.855741412310065e+21	5.707781243617088e+16	1.4151403688002834e+21	-6.451943881681301e+16	1.9434339568332616e+20
7.00609832783825e+21	-7.024764650690301e+21	1.2805745001773082e+17	7.094028246287529e+21	-5.832504191192438e+16	1.9995871944636665e+20
1.8068789039343201e+22	-1.8571729817175176e+22	5.816798160625682e+17	1.9234246611145077e+22	-5.500244876262038e+17	2.1359643056180668e+20
5.9983265591430664e+22	-5.564095492397774e+22	1.8424472826612396e+18	5.205456711362697e+22	-2.0941492799394952e+18	2.5472420085429725e+20
1.9316724425763136e+23	-1.8200016032507574e+23	6.32228920661747e+18	1.726519216008117e+23	-6.798123090266096e+18	4.071999506917106e+20
5.7732888528848804e+23	-5.607183030050755e+23	1.9696115931068977e+19	5.480213727935096e+23	-2.1418019572148785e+19	9.285523109212279e+20
1.769329896073134e+24	-1.7014200654233004e+24	5.972020488580965e+19	1.6470371743257914e+24	-6.650785908075104e+19	2.58903767283661e+21
5.5239661861757e+24	-5.277588044056883e+24	1.8064686525128095e+20	5.074981916811547e+24	-2.0397346487150726e+20	8.096360271703937e+21
1.704110573661053e+25	-1.6371227361444222e+25	5.63805859704603e+20	1.5825077177382883e+25	-6.291162484223974e+20	2.787963028370333e+22
5.242533283650933e+25	-5.046522665756754e+25	1.7605084178046583e+21	4.88801033750537e+25	-1.954603099478475e+21	9.637173611248049e+22
1.620006786913998e+26	-1.558509239106042e+26	5.39758026873505e+21	1.5087879577763673e+26	-6.017244332591979e+21	3.2889149355113027e+23
5.005335512443236e+26	-4.8208762582808404e+26	1.7116896212935179e+22	4.672237986124913e+26	-1.8678781195698e+22	1.1741559110692148e+24
1.543287942517531e+27	-1.4884389299515314e+27	5.1538886784161665e+22	1.4441435156698557e+27	-5.734144208235709e+22	4.2733790288057884e+24
4.742699907434724e+27	-4.5733735015516236e+27	1.5172905212505592e+23	4.434939644013482e+27	-1.6426034220000104e+23	1.6078441298434644e+25
1.445109264624752e+28	-1.3896403196974688e+28	4.053956899789377e+23	1.3434237393619366e+28	-4.314774575172709e+23	6.2523861358283506e+25
4.355530281964732e+28	-4.1534953243965015e+28	1.4880020504814044e+24	3.981503673171303e+28	-1.041686797195409e+24	2.4950133723263564e+26
1.3062628997651161e+29	-1.229281940472306e+29	1.1040571581892107e+24	1.168118828004427e+29	-1.9059525493765932e+24	1.2319397144207333e+27
3.8067947956977775e+29	-3.499122455833606e+29	8.244236132389968e+24	3.3350791696232384e+29	-1.2061937330583544e+24	7.533146859392894e+27
8.145628023179476e+29	-7.013702518644128e+29	-1.0451797299780196e+26	7.41872312674104e+29	1.815683807464688e+25	3.75882097366005e+28
4.335828197907225e+29	-3.698990910134652e+29	-2.2323168294362842e+27	5.549377531998369e+29	4.007591008492149e+27	8.573793152010237e+28
1.2279781972998424e+29	-4.936844458348491e+28	1.0399116097473762e+27	1.7235304626591357e+29	2.3984245834826103e+26	6.2848563118525044e+28
6.613303897355719e+28	-3.6118996960683178e+28	-2.3970486893786786e+27	9.887722325380882e+28	1.1282907496541644e+27	3.619862172350797e+28
